[gd_scene load_steps=4 format=2]

[ext_resource path="res://Graphics/Materials/Main/MainAsphalt.tres" type="Material" id=1]
[ext_resource path="res://Graphics/Meshes/Terrain/Asphalt.mesh" type="ArrayMesh" id=2]

[sub_resource type="BoxShape" id=1]
extents = Vector3( 12, 0.707751, 12 )

[node name="Asphalt" type="MeshInstance"]
mesh = ExtResource( 2 )
material/0 = ExtResource( 1 )

[node name="StaticBody" type="StaticBody" parent="."]

[node name="CollisionShape" type="CollisionShape" parent="StaticBody"]
transform = Transform( 1, 0, 0, 0, 1, 0, 0, 0, 1, 12, -0.712971, -12 )
shape = SubResource( 1 )
