[gd_scene load_steps=4 format=2]

[ext_resource path="res://Graphics/Meshes/Cars/Car00.mesh" type="ArrayMesh" id=1]
[ext_resource path="res://Graphics/Materials/Main/MainCarsMat.tres" type="Material" id=2]

[sub_resource type="BoxShape" id=1]
extents = Vector3( 0.973114, 0.707751, 1.94142 )

[node name="Car00" type="MeshInstance"]
mesh = ExtResource( 1 )
material/0 = ExtResource( 2 )

[node name="StaticBody" type="StaticBody" parent="."]

[node name="CollisionShape" type="CollisionShape" parent="StaticBody"]
transform = Transform( 1, 0, 0, 0, 1, 0, 0, 0, 1, -0.018672, 0.0248964, 0.129767 )
shape = SubResource( 1 )
