[gd_scene load_steps=3 format=2]

[ext_resource path="res://Graphics/Materials/Main/MainLightRayMat.tres" type="Material" id=1]
[ext_resource path="res://Graphics/Meshes/LightRays/FakeIES007.mesh" type="ArrayMesh" id=2]

[node name="LightRay07" type="MeshInstance"]
mesh = ExtResource( 2 )
material/0 = ExtResource( 1 )
