[gd_resource type="Animation" format=2]

[resource]
resource_name = "Walking Forwards-loop"
length = 1.4
loop = true
tracks/0/type = "transform"
tracks/0/path = NodePath("Armature/Skeleton:Head")
tracks/0/interp = 1
tracks/0/loop_wrap = true
tracks/0/imported = true
tracks/0/enabled = true
tracks/0/keys = PoolRealArray( 0, 1, 0, 0, 0, 0.150113, 0.0806435, 0.0490896, 0.984151, 1, 1, 1, 0.0333333, 1, 0, 0, 0, 0.150113, 0.0806435, 0.0490896, 0.984151, 1, 1, 1 )
tracks/1/type = "transform"
tracks/1/path = NodePath("Armature/Skeleton:Neck")
tracks/1/interp = 1
tracks/1/loop_wrap = true
tracks/1/imported = true
tracks/1/enabled = true
tracks/1/keys = PoolRealArray( 0, 1, 5.29396e-23, -1.16415e-10, 1.09139e-11, 0.107044, 0.122061, -0.0421689, 0.985832, 1, 1, 1, 0.0666667, 1, 5.29396e-23, -1.16415e-10, 1.09139e-11, 0.111044, 0.123105, -0.0367162, 0.985478, 1, 1, 1, 0.133333, 1, 5.29396e-23, -1.16415e-10, 1.09139e-11, 0.120145, 0.125386, -0.0241278, 0.984511, 1, 1, 1, 0.2, 1, 5.29396e-23, -1.16415e-10, 1.09139e-11, 0.126676, 0.126848, -0.014779, 0.983689, 1, 1, 1, 0.266667, 1, 5.29396e-23, -1.16415e-10, 1.09139e-11, 0.126394, 0.126316, -0.0147967, 0.983794, 1, 1, 1, 0.333333, 1, 5.29396e-23, -1.16415e-10, 1.09139e-11, 0.119741, 0.123026, -0.0235427, 0.984872, 1, 1, 1, 0.4, 1, 5.29396e-23, -1.16415e-10, 1.09139e-11, 0.109677, 0.118685, -0.0365822, 0.986178, 1, 1, 1, 0.466667, 1, 5.29396e-23, -1.16415e-10, 1.09139e-11, 0.0993055, 0.115454, -0.0496512, 0.987089, 1, 1, 1, 0.533333, 1, 5.29396e-23, -1.16415e-10, 1.09139e-11, 0.0920439, 0.115802, -0.0586488, 0.987258, 1, 1, 1, 0.6, 1, 5.29396e-23, -1.16415e-10, 1.09139e-11, 0.0900844, 0.123903, -0.0613057, 0.986293, 1, 1, 1, 0.666667, 1, 5.29396e-23, -1.16415e-10, 1.09139e-11, 0.0903652, 0.134211, -0.0614332, 0.98491, 1, 1, 1, 0.733333, 1, 5.29396e-23, -1.16415e-10, 1.09139e-11, 0.0894933, 0.13822, -0.0630048, 0.984336, 1, 1, 1, 0.8, 1, 5.29396e-23, -1.16415e-10, 1.09139e-11, 0.0881678, 0.139107, -0.0651785, 0.984189, 1, 1, 1, 0.866667, 1, 5.29396e-23, -1.16415e-10, 1.09139e-11, 0.0872067, 0.138377, -0.0668234, 0.984267, 1, 1, 1, 0.933333, 1, 5.29396e-23, -1.16415e-10, 1.09139e-11, 0.0873876, 0.137291, -0.0668809, 0.984399, 1, 1, 1, 1, 1, 5.29396e-23, -1.16415e-10, 1.09139e-11, 0.0888744, 0.136112, -0.065138, 0.984547, 1, 1, 1, 1.06667, 1, 5.29396e-23, -1.16415e-10, 1.09139e-11, 0.0911641, 0.134356, -0.0622891, 0.984763, 1, 1, 1, 1.4, 1, 5.29396e-23, -1.16415e-10, 1.09139e-11, 0.107044, 0.122061, -0.0421688, 0.985832, 1, 1, 1 )
tracks/2/type = "transform"
tracks/2/path = NodePath("Armature/Skeleton:LeftHandThumb3")
tracks/2/interp = 1
tracks/2/loop_wrap = true
tracks/2/imported = true
tracks/2/enabled = true
tracks/2/keys = PoolRealArray( 0, 1, -2.03727e-10, 2.91038e-11, -2.63171e-10, -0.0115681, 0.0163412, 0.0918136, 0.995575, 1, 1, 1, 1.4, 1, -2.03727e-10, 2.91038e-11, -2.63171e-10, -0.0115681, 0.0163412, 0.0918136, 0.995575, 1, 1, 1 )
tracks/3/type = "transform"
tracks/3/path = NodePath("Armature/Skeleton:LeftHandThumb2")
tracks/3/interp = 1
tracks/3/loop_wrap = true
tracks/3/imported = true
tracks/3/enabled = true
tracks/3/keys = PoolRealArray( 0, 1, -3.91083e-11, 1.45519e-10, -1.75649e-09, 0.0226189, 0.16844, -0.0624562, 0.983471, 1, 1, 1, 1.4, 1, -3.91083e-11, 1.45519e-10, -1.75649e-09, 0.0226189, 0.16844, -0.0624562, 0.983471, 1, 1, 1 )
tracks/4/type = "transform"
tracks/4/path = NodePath("Armature/Skeleton:LeftHandThumb1")
tracks/4/interp = 1
tracks/4/loop_wrap = true
tracks/4/imported = true
tracks/4/enabled = true
tracks/4/keys = PoolRealArray( 0, 1, -1.45519e-11, -1.74623e-10, -5.52973e-10, -0.0248769, 0.00511159, -0.0942885, 0.995221, 1, 1, 1, 1.4, 1, -1.45519e-11, -1.74623e-10, -5.52973e-10, -0.0248769, 0.00511159, -0.0942885, 0.995221, 1, 1, 1 )
tracks/5/type = "transform"
tracks/5/path = NodePath("Armature/Skeleton:LeftHandIndex3")
tracks/5/interp = 1
tracks/5/loop_wrap = true
tracks/5/imported = true
tracks/5/enabled = true
tracks/5/keys = PoolRealArray( 0, 1, 5.45697e-11, -9.31323e-10, 4.99917e-10, 0.20664, 0.00446798, -0.0379913, 0.977669, 1, 1, 1, 1.4, 1, 5.45697e-11, -9.31323e-10, 4.99917e-10, 0.20664, 0.00446798, -0.0379913, 0.977669, 1, 1, 1 )
tracks/6/type = "transform"
tracks/6/path = NodePath("Armature/Skeleton:LeftHandIndex2")
tracks/6/interp = 1
tracks/6/loop_wrap = true
tracks/6/imported = true
tracks/6/enabled = true
tracks/6/keys = PoolRealArray( 0, 1, -9.09495e-13, 1.25146e-09, -2.18933e-09, 0.493548, 0.0138496, -0.0910815, 0.864825, 1, 1, 1, 1.4, 1, -9.09495e-13, 1.25146e-09, -2.18933e-09, 0.493548, 0.0138496, -0.0910815, 0.864825, 1, 1, 1 )
tracks/7/type = "transform"
tracks/7/path = NodePath("Armature/Skeleton:LeftHandIndex1")
tracks/7/interp = 1
tracks/7/loop_wrap = true
tracks/7/imported = true
tracks/7/enabled = true
tracks/7/keys = PoolRealArray( 0, 1, 5.82077e-11, 4.65661e-10, 4.62023e-10, 0.310635, -0.025071, -0.0577716, 0.948441, 1, 1, 1, 1.4, 1, 5.82077e-11, 4.65661e-10, 4.62023e-10, 0.310635, -0.025071, -0.0577716, 0.948441, 1, 1, 1 )
tracks/8/type = "transform"
tracks/8/path = NodePath("Armature/Skeleton:LeftHandMiddle3")
tracks/8/interp = 1
tracks/8/loop_wrap = true
tracks/8/imported = true
tracks/8/enabled = true
tracks/8/keys = PoolRealArray( 0, 1, 8.18545e-11, 1.07684e-09, -6.15692e-10, 0.153029, 0.00639194, -0.028235, 0.987798, 1, 1, 1, 1.4, 1, 8.18545e-11, 1.07684e-09, -6.15692e-10, 0.153029, 0.00639194, -0.028235, 0.987798, 1, 1, 1 )
tracks/9/type = "transform"
tracks/9/path = NodePath("Armature/Skeleton:LeftHandMiddle2")
tracks/9/interp = 1
tracks/9/loop_wrap = true
tracks/9/imported = true
tracks/9/enabled = true
tracks/9/keys = PoolRealArray( 0, 1, 2.30102e-10, -6.1118e-10, -2.11891e-10, 0.530057, 0.00232473, -0.0953099, 0.842585, 1, 1, 1, 1.4, 1, 2.30102e-10, -6.1118e-10, -2.11891e-10, 0.530057, 0.00232473, -0.0953099, 0.842585, 1, 1, 1 )
tracks/10/type = "transform"
tracks/10/path = NodePath("Armature/Skeleton:LeftHandMiddle1")
tracks/10/interp = 1
tracks/10/loop_wrap = true
tracks/10/imported = true
tracks/10/enabled = true
tracks/10/keys = PoolRealArray( 0, 1, 9.82254e-11, 2.32831e-10, 8.0945e-10, 0.435203, -0.035515, -0.0797766, 0.896087, 1, 1, 1, 1.4, 1, 9.82254e-11, 2.32831e-10, 8.0945e-10, 0.435203, -0.035515, -0.0797766, 0.896087, 1, 1, 1 )
tracks/11/type = "transform"
tracks/11/path = NodePath("Armature/Skeleton:LeftHandRing3")
tracks/11/interp = 1
tracks/11/loop_wrap = true
tracks/11/imported = true
tracks/11/enabled = true
tracks/11/keys = PoolRealArray( 0, 1, 4.72937e-11, 0, -6.50646e-10, 0.219728, 0.0112527, -0.0410112, 0.974634, 1, 1, 1, 1.4, 1, 4.72937e-11, 0, -6.50646e-10, 0.219728, 0.0112527, -0.0410112, 0.974634, 1, 1, 1 )
tracks/12/type = "transform"
tracks/12/path = NodePath("Armature/Skeleton:LeftHandRing2")
tracks/12/interp = 1
tracks/12/loop_wrap = true
tracks/12/imported = true
tracks/12/enabled = true
tracks/12/keys = PoolRealArray( 0, 1, 1.28239e-10, 1.74623e-10, -7.46248e-10, 0.579659, 0.0101188, -0.104393, 0.808081, 1, 1, 1, 1.4, 1, 1.28239e-10, 1.74623e-10, -7.46248e-10, 0.579659, 0.0101188, -0.104393, 0.808081, 1, 1, 1 )
tracks/13/type = "transform"
tracks/13/path = NodePath("Armature/Skeleton:LeftHandRing1")
tracks/13/interp = 1
tracks/13/loop_wrap = true
tracks/13/imported = true
tracks/13/enabled = true
tracks/13/keys = PoolRealArray( 0, 1, -2.61934e-10, -8.14907e-10, -3.23325e-10, 0.499684, -0.0547019, -0.0852931, 0.860261, 1, 1, 1, 1.4, 1, -2.61934e-10, -8.14907e-10, -3.23325e-10, 0.499684, -0.0547019, -0.0852931, 0.860261, 1, 1, 1 )
tracks/14/type = "transform"
tracks/14/path = NodePath("Armature/Skeleton:LeftHandPinky3")
tracks/14/interp = 1
tracks/14/loop_wrap = true
tracks/14/imported = true
tracks/14/enabled = true
tracks/14/keys = PoolRealArray( 0, 1, -1.93722e-10, -1.01863e-09, -5.55102e-10, 0.118893, 0.00178123, -0.0307486, 0.992429, 1, 1, 1, 1.4, 1, -1.93722e-10, -1.01863e-09, -5.55102e-10, 0.118893, 0.00178123, -0.0307486, 0.992429, 1, 1, 1 )
tracks/15/type = "transform"
tracks/15/path = NodePath("Armature/Skeleton:LeftHandPinky2")
tracks/15/interp = 1
tracks/15/loop_wrap = true
tracks/15/imported = true
tracks/15/enabled = true
tracks/15/keys = PoolRealArray( 0, 1, 1.19144e-10, 4.94765e-10, -1.39163e-09, 0.514406, 0.0103919, -0.133642, 0.847006, 1, 1, 1, 1.4, 1, 1.19144e-10, 4.94765e-10, -1.39163e-09, 0.514406, 0.0103919, -0.133642, 0.847006, 1, 1, 1 )
tracks/16/type = "transform"
tracks/16/path = NodePath("Armature/Skeleton:LeftHandPinky1")
tracks/16/interp = 1
tracks/16/loop_wrap = true
tracks/16/imported = true
tracks/16/enabled = true
tracks/16/keys = PoolRealArray( 0, 1, 2.32831e-10, 4.65661e-10, -5.31145e-10, 0.582506, -0.0851542, -0.0881736, 0.80353, 1, 1, 1, 1.4, 1, 2.32831e-10, 4.65661e-10, -5.31145e-10, 0.582506, -0.0851542, -0.0881736, 0.80353, 1, 1, 1 )
tracks/17/type = "transform"
tracks/17/path = NodePath("Armature/Skeleton:LeftHand")
tracks/17/interp = 1
tracks/17/loop_wrap = true
tracks/17/imported = true
tracks/17/enabled = true
tracks/17/keys = PoolRealArray( 0, 1, 1.27475e-08, -3.14321e-08, -8.25821e-10, -0.028575, 0.90468, 0.172645, -0.388498, 1, 1, 1, 0.0666667, 1, 1.27475e-08, -3.14321e-08, -8.25821e-10, -0.0291547, 0.902954, 0.173601, -0.39203, 1, 1, 1, 0.133333, 1, 1.27475e-08, -3.14321e-08, -8.25821e-10, -0.0302929, 0.900493, 0.175856, -0.396573, 1, 1, 1, 0.2, 1, 1.27475e-08, -3.14321e-08, -8.25821e-10, -0.0264378, 0.89561, 0.183741, -0.404256, 1, 1, 1, 0.266667, 1, 1.27475e-08, -3.14321e-08, -8.25821e-10, -0.0230859, 0.894624, 0.184344, -0.406365, 1, 1, 1, 0.333333, 1, 1.27475e-08, -3.14321e-08, -8.25821e-10, -0.0199929, 0.89719, 0.178526, -0.403459, 1, 1, 1, 0.4, 1, 1.27475e-08, -3.14321e-08, -8.25821e-10, -0.0161255, 0.903079, 0.169772, -0.394166, 1, 1, 1, 0.533333, 1, 1.27475e-08, -3.14321e-08, -8.25821e-10, 0.0154195, 0.902766, 0.193078, -0.384053, 1, 1, 1, 0.6, 1, 1.27475e-08, -3.14321e-08, -8.25821e-10, 0.0333753, 0.906518, 0.19701, -0.371885, 1, 1, 1, 0.666667, 1, 1.27475e-08, -3.14321e-08, -8.25821e-10, 0.0442605, 0.907745, 0.201835, -0.365107, 1, 1, 1, 0.733333, 1, 1.27475e-08, -3.14321e-08, -8.25821e-10, 0.0447484, 0.908785, 0.200008, -0.363462, 1, 1, 1, 0.8, 1, 1.27475e-08, -3.14321e-08, -8.25821e-10, 0.0368227, 0.910032, 0.195202, -0.363843, 1, 1, 1, 0.866667, 1, 1.27475e-08, -3.14321e-08, -8.25821e-10, 0.024983, 0.910305, 0.188378, -0.367743, 1, 1, 1, 0.933333, 1, 1.27475e-08, -3.14321e-08, -8.25821e-10, 0.0161561, 0.909155, 0.184964, -0.372781, 1, 1, 1, 1, 1, 1.27475e-08, -3.14321e-08, -8.25821e-10, 0.0124078, 0.910551, 0.1802, -0.371848, 1, 1, 1, 1.06667, 1, 1.27475e-08, -3.14321e-08, -8.25821e-10, 0.0119956, 0.912624, 0.175907, -0.368822, 1, 1, 1, 1.13333, 1, 1.27475e-08, -3.14321e-08, -8.25821e-10, 0.0119139, 0.913152, 0.176201, -0.367375, 1, 1, 1, 1.2, 1, 1.27475e-08, -3.14321e-08, -8.25821e-10, 0.00774857, 0.911168, 0.179159, -0.370965, 1, 1, 1, 1.26667, 1, 1.27475e-08, -3.14321e-08, -8.25821e-10, -0.00283429, 0.910466, 0.176212, -0.374156, 1, 1, 1, 1.33333, 1, 1.27475e-08, -3.14321e-08, -8.25821e-10, -0.0136598, 0.904409, 0.1787, -0.387201, 1, 1, 1, 1.4, 1, 1.27475e-08, -3.14321e-08, -8.25821e-10, -0.028575, 0.90468, 0.172645, -0.388498, 1, 1, 1 )
tracks/18/type = "transform"
tracks/18/path = NodePath("Armature/Skeleton:LeftForeArm")
tracks/18/interp = 1
tracks/18/loop_wrap = true
tracks/18/imported = true
tracks/18/enabled = true
tracks/18/keys = PoolRealArray( 0, 1, 4.91429e-09, 9.31323e-10, -3.92121e-08, 0.0194559, -4.58104e-08, 0.503078, 0.864022, 1, 1, 1, 0.133333, 1, 4.91429e-09, 9.31323e-10, -3.92121e-08, 0.01979, -4.39137e-08, 0.51172, 0.858925, 1, 1, 1, 0.2, 1, 4.91429e-09, 9.31323e-10, -3.92121e-08, 0.0200342, 1.5792e-08, 0.518034, 0.855125, 1, 1, 1, 0.333333, 1, 4.91429e-09, 9.31323e-10, -3.92121e-08, 0.0202237, -3.66132e-08, 0.522934, 0.852133, 1, 1, 1, 0.4, 1, 4.91429e-09, 9.31323e-10, -3.92121e-08, 0.0204713, 5.21572e-08, 0.529338, 0.848164, 1, 1, 1, 0.533333, 1, 4.91429e-09, 9.31323e-10, -3.92121e-08, 0.0218571, -3.38791e-09, 0.565167, 0.824687, 1, 1, 1, 0.6, 1, 4.91429e-09, 9.31323e-10, -3.92121e-08, 0.0227955, 2.94104e-08, 0.589435, 0.807494, 1, 1, 1, 0.666667, 1, 4.91429e-09, 9.31323e-10, -3.92121e-08, 0.0233406, -1.98652e-08, 0.603532, 0.796997, 1, 1, 1, 0.733333, 1, 4.91429e-09, 9.31323e-10, -3.92121e-08, 0.0235448, -4.81537e-08, 0.608811, 0.792966, 1, 1, 1, 0.8, 1, 4.91429e-09, 9.31323e-10, -3.92121e-08, 0.0234601, 1.34194e-07, 0.606622, 0.794644, 1, 1, 1, 0.933333, 1, 4.91429e-09, 9.31323e-10, -3.92121e-08, 0.0228458, 9.12223e-08, 0.590738, 0.80654, 1, 1, 1, 1, 1, 4.91429e-09, 9.31323e-10, -3.92121e-08, 0.0226912, 7.70868e-08, 0.586738, 0.809459, 1, 1, 1, 1.06667, 1, 4.91429e-09, 9.31323e-10, -3.92121e-08, 0.0224717, 3.43429e-09, 0.581061, 0.81355, 1, 1, 1, 1.13333, 1, 4.91429e-09, 9.31323e-10, -3.92121e-08, 0.0220335, -1.58709e-08, 0.569733, 0.821534, 1, 1, 1, 1.26667, 1, 4.91429e-09, 9.31323e-10, -3.92121e-08, 0.0205272, -7.30978e-08, 0.530779, 0.847261, 1, 1, 1, 1.4, 1, 4.91429e-09, 9.31323e-10, -3.92121e-08, 0.0194558, 2.048e-08, 0.503078, 0.864022, 1, 1, 1 )
tracks/19/type = "transform"
tracks/19/path = NodePath("Armature/Skeleton:LeftArm")
tracks/19/interp = 1
tracks/19/loop_wrap = true
tracks/19/imported = true
tracks/19/enabled = true
tracks/19/keys = PoolRealArray( 0, 1, -2.3465e-09, 1.44355e-08, 4.80213e-09, 0.259922, -0.36438, 0.261441, 0.85517, 1, 1, 1, 0.0666667, 1, -2.3465e-09, 1.44355e-08, 4.80213e-09, 0.262662, -0.360588, 0.259158, 0.856634, 1, 1, 1, 0.133333, 1, -2.3465e-09, 1.44355e-08, 4.80213e-09, 0.265222, -0.353891, 0.259474, 0.85854, 1, 1, 1, 0.2, 1, -2.3465e-09, 1.44355e-08, 4.80213e-09, 0.25899, -0.353639, 0.256823, 0.861339, 1, 1, 1, 0.266667, 1, -2.3465e-09, 1.44355e-08, 4.80213e-09, 0.261951, -0.349151, 0.257529, 0.862064, 1, 1, 1, 0.333333, 1, -2.3465e-09, 1.44355e-08, 4.80213e-09, 0.268378, -0.343305, 0.261605, 0.861207, 1, 1, 1, 0.4, 1, -2.3465e-09, 1.44355e-08, 4.80213e-09, 0.275497, -0.334277, 0.260877, 0.862731, 1, 1, 1, 0.466667, 1, -2.3465e-09, 1.44355e-08, 4.80213e-09, 0.267748, -0.345524, 0.254616, 0.862609, 1, 1, 1, 0.533333, 1, -2.3465e-09, 1.44355e-08, 4.80213e-09, 0.256158, -0.360827, 0.245939, 0.862381, 1, 1, 1, 0.6, 1, -2.3465e-09, 1.44355e-08, 4.80213e-09, 0.247199, -0.366287, 0.230002, 0.867079, 1, 1, 1, 0.666667, 1, -2.3465e-09, 1.44355e-08, 4.80213e-09, 0.236213, -0.375814, 0.213911, 0.870178, 1, 1, 1, 0.733333, 1, -2.3465e-09, 1.44355e-08, 4.80213e-09, 0.239157, -0.379498, 0.203712, 0.870222, 1, 1, 1, 0.8, 1, -2.3465e-09, 1.44355e-08, 4.80213e-09, 0.240904, -0.379582, 0.195371, 0.871615, 1, 1, 1, 0.866667, 1, -2.3465e-09, 1.44355e-08, 4.80213e-09, 0.248738, -0.374249, 0.190617, 0.872773, 1, 1, 1, 0.933333, 1, -2.3465e-09, 1.44355e-08, 4.80213e-09, 0.255983, -0.367512, 0.189783, 0.873722, 1, 1, 1, 1, 1, -2.3465e-09, 1.44355e-08, 4.80213e-09, 0.25798, -0.355891, 0.183264, 0.879319, 1, 1, 1, 1.06667, 1, -2.3465e-09, 1.44355e-08, 4.80213e-09, 0.264055, -0.348974, 0.183153, 0.880311, 1, 1, 1, 1.13333, 1, -2.3465e-09, 1.44355e-08, 4.80213e-09, 0.261256, -0.349882, 0.197508, 0.877678, 1, 1, 1, 1.2, 1, -2.3465e-09, 1.44355e-08, 4.80213e-09, 0.256276, -0.353624, 0.226131, 0.870711, 1, 1, 1, 1.26667, 1, -2.3465e-09, 1.44355e-08, 4.80213e-09, 0.255165, -0.358183, 0.244239, 0.864258, 1, 1, 1, 1.33333, 1, -2.3465e-09, 1.44355e-08, 4.80213e-09, 0.257627, -0.366063, 0.254265, 0.857307, 1, 1, 1, 1.4, 1, -2.3465e-09, 1.44355e-08, 4.80213e-09, 0.259922, -0.36438, 0.261441, 0.85517, 1, 1, 1 )
tracks/20/type = "transform"
tracks/20/path = NodePath("Armature/Skeleton:LeftShoulder")
tracks/20/interp = 1
tracks/20/loop_wrap = true
tracks/20/imported = true
tracks/20/enabled = true
tracks/20/keys = PoolRealArray( 0, 1, -6.50289e-11, -2.61934e-10, -5.82077e-10, 0.113484, 0.0283968, 0.0955934, 0.988523, 1, 1, 1, 0.0666667, 1, -6.50289e-11, -2.61934e-10, -5.82077e-10, 0.111243, 0.0275257, 0.0922365, 0.989121, 1, 1, 1, 0.133333, 1, -6.50289e-11, -2.61934e-10, -5.82077e-10, 0.108476, 0.0261326, 0.0867968, 0.989958, 1, 1, 1, 0.2, 1, -6.50289e-11, -2.61934e-10, -5.82077e-10, 0.114187, 0.0271999, 0.0906399, 0.988942, 1, 1, 1, 0.266667, 1, -6.50289e-11, -2.61934e-10, -5.82077e-10, 0.111819, 0.026783, 0.0891333, 0.989361, 1, 1, 1, 0.333333, 1, -6.50289e-11, -2.61934e-10, -5.82077e-10, 0.104369, 0.0248744, 0.0820056, 0.99084, 1, 1, 1, 0.4, 1, -6.50289e-11, -2.61934e-10, -5.82077e-10, 0.095183, 0.0224628, 0.0730334, 0.992523, 1, 1, 1, 0.466667, 1, -6.50289e-11, -2.61934e-10, -5.82077e-10, 0.0951029, 0.0218697, 0.070506, 0.992727, 1, 1, 1, 0.533333, 1, -6.50289e-11, -2.61934e-10, -5.82077e-10, 0.0957471, 0.0213461, 0.0682189, 0.992836, 1, 1, 1, 0.6, 1, -6.50289e-11, -2.61934e-10, -5.82077e-10, 0.0942523, 0.0210508, 0.0670891, 0.993062, 1, 1, 1, 0.666667, 1, -6.50289e-11, -2.61934e-10, -5.82077e-10, 0.0988406, 0.0228778, 0.0741455, 0.992073, 1, 1, 1, 0.733333, 1, -6.50289e-11, -2.61934e-10, -5.82077e-10, 0.0997257, 0.0236318, 0.077078, 0.991744, 1, 1, 1, 0.8, 1, -6.50289e-11, -2.61934e-10, -5.82077e-10, 0.102753, 0.0253123, 0.083617, 0.990863, 1, 1, 1, 0.866667, 1, -6.50289e-11, -2.61934e-10, -5.82077e-10, 0.103972, 0.0261315, 0.086789, 0.990442, 1, 1, 1, 0.933333, 1, -6.50289e-11, -2.61934e-10, -5.82077e-10, 0.106201, 0.0263117, 0.0873832, 0.990148, 1, 1, 1, 1, 1, -6.50289e-11, -2.61934e-10, -5.82077e-10, 0.110438, 0.0276711, 0.0927754, 0.989156, 1, 1, 1, 1.06667, 1, -6.50289e-11, -2.61934e-10, -5.82077e-10, 0.110829, 0.0286596, 0.0967961, 0.988699, 1, 1, 1, 1.13333, 1, -6.50289e-11, -2.61934e-10, -5.82077e-10, 0.114445, 0.0291172, 0.098611, 0.988094, 1, 1, 1, 1.2, 1, -6.50289e-11, -2.61934e-10, -5.82077e-10, 0.112591, 0.027562, 0.0925744, 0.988936, 1, 1, 1, 1.26667, 1, -6.50289e-11, -2.61934e-10, -5.82077e-10, 0.112347, 0.0277428, 0.0932868, 0.988891, 1, 1, 1, 1.33333, 1, -6.50289e-11, -2.61934e-10, -5.82077e-10, 0.11371, 0.0286252, 0.0965421, 0.988398, 1, 1, 1, 1.4, 1, -6.50289e-11, -2.61934e-10, -5.82077e-10, 0.113485, 0.0283968, 0.0955933, 0.988523, 1, 1, 1 )
tracks/21/type = "transform"
tracks/21/path = NodePath("Armature/Skeleton:RightHandThumb3")
tracks/21/interp = 1
tracks/21/loop_wrap = true
tracks/21/imported = true
tracks/21/enabled = true
tracks/21/keys = PoolRealArray( 0, 1, -2.18279e-11, 1.16415e-10, -1.08316e-09, -0.237405, -0.072235, 0.42326, 0.871362, 1, 1, 1, 1.4, 1, -2.18279e-11, 1.16415e-10, -1.08316e-09, -0.237405, -0.072235, 0.42326, 0.871362, 1, 1, 1 )
tracks/22/type = "transform"
tracks/22/path = NodePath("Armature/Skeleton:RightHandThumb2")
tracks/22/interp = 1
tracks/22/loop_wrap = true
tracks/22/imported = true
tracks/22/enabled = true
tracks/22/keys = PoolRealArray( 0, 1, 2.92857e-10, -7.567e-10, -3.50298e-11, -0.0840992, -0.193292, 0.218788, 0.952731, 1, 1, 1, 1.4, 1, 2.92857e-10, -7.567e-10, -3.50298e-11, -0.0840992, -0.193292, 0.218788, 0.952731, 1, 1, 1 )
tracks/23/type = "transform"
tracks/23/path = NodePath("Armature/Skeleton:RightHandThumb1")
tracks/23/interp = 1
tracks/23/loop_wrap = true
tracks/23/imported = true
tracks/23/enabled = true
tracks/23/keys = PoolRealArray( 0, 1, -2.32831e-10, 6.98492e-10, 6.1118e-10, 0.104366, -0.0117179, 0.0684654, 0.99211, 1, 1, 1, 1.4, 1, -2.32831e-10, 6.98492e-10, 6.1118e-10, 0.104366, -0.0117179, 0.0684654, 0.99211, 1, 1, 1 )
tracks/24/type = "transform"
tracks/24/path = NodePath("Armature/Skeleton:RightHandIndex3")
tracks/24/interp = 1
tracks/24/loop_wrap = true
tracks/24/imported = true
tracks/24/enabled = true
tracks/24/keys = PoolRealArray( 0, 1, -2.00089e-11, 4.07454e-10, -1.34622e-09, 0.254243, -0.0106824, 0.0397361, 0.966265, 1, 1, 1, 1.4, 1, -2.00089e-11, 4.07454e-10, -1.34622e-09, 0.254243, -0.0106824, 0.0397361, 0.966265, 1, 1, 1 )
tracks/25/type = "transform"
tracks/25/path = NodePath("Armature/Skeleton:RightHandIndex2")
tracks/25/interp = 1
tracks/25/loop_wrap = true
tracks/25/imported = true
tracks/25/enabled = true
tracks/25/keys = PoolRealArray( 0, 1, -1.30058e-10, -8.44011e-10, 2.04921e-10, 0.280609, -0.00417775, 0.0428201, 0.958858, 1, 1, 1, 1.4, 1, -1.30058e-10, -8.44011e-10, 2.04921e-10, 0.280609, -0.00417775, 0.0428201, 0.958858, 1, 1, 1 )
tracks/26/type = "transform"
tracks/26/path = NodePath("Armature/Skeleton:RightHandIndex1")
tracks/26/interp = 1
tracks/26/loop_wrap = true
tracks/26/imported = true
tracks/26/enabled = true
tracks/26/keys = PoolRealArray( 0, 1, -3.20142e-10, 8.14907e-10, -1.65528e-10, 0.10861, 0.0114361, -0.00736625, 0.993991, 1, 1, 1, 1.4, 1, -3.20142e-10, 8.14907e-10, -1.65528e-10, 0.10861, 0.0114361, -0.00736625, 0.993991, 1, 1, 1 )
tracks/27/type = "transform"
tracks/27/path = NodePath("Armature/Skeleton:RightHandMiddle3")
tracks/27/interp = 1
tracks/27/loop_wrap = true
tracks/27/imported = true
tracks/27/enabled = true
tracks/27/keys = PoolRealArray( 0, 1, -2.36469e-11, -6.69388e-10, 4.1949e-10, 0.161689, -0.00853022, 0.024384, 0.986504, 1, 1, 1, 1.4, 1, -2.36469e-11, -6.69388e-10, 4.1949e-10, 0.161689, -0.00853022, 0.024384, 0.986504, 1, 1, 1 )
tracks/28/type = "transform"
tracks/28/path = NodePath("Armature/Skeleton:RightHandMiddle2")
tracks/28/interp = 1
tracks/28/loop_wrap = true
tracks/28/imported = true
tracks/28/enabled = true
tracks/28/keys = PoolRealArray( 0, 1, -3.89946e-11, -6.1118e-10, -1.48161e-09, 0.8136, -0.00352211, 0.117206, 0.569479, 1, 1, 1, 1.4, 1, -3.89946e-11, -6.1118e-10, -1.48161e-09, 0.8136, -0.00352211, 0.117206, 0.569479, 1, 1, 1 )
tracks/29/type = "transform"
tracks/29/path = NodePath("Armature/Skeleton:RightHandMiddle1")
tracks/29/interp = 1
tracks/29/loop_wrap = true
tracks/29/imported = true
tracks/29/enabled = true
tracks/29/keys = PoolRealArray( 0, 1, 2.07365e-10, -1.28057e-09, 2.49202e-10, 0.426522, 0.0229359, 0.0987911, 0.898773, 1, 1, 1, 1.4, 1, 2.07365e-10, -1.28057e-09, 2.49202e-10, 0.426522, 0.0229359, 0.0987911, 0.898773, 1, 1, 1 )
tracks/30/type = "transform"
tracks/30/path = NodePath("Armature/Skeleton:RightHandRing3")
tracks/30/interp = 1
tracks/30/loop_wrap = true
tracks/30/imported = true
tracks/30/enabled = true
tracks/30/keys = PoolRealArray( 0, 1, 2.81943e-11, -1.45519e-10, 1.20534e-09, 0.420725, -0.0139082, 0.0677594, 0.904547, 1, 1, 1, 1.4, 1, 2.81943e-11, -1.45519e-10, 1.20534e-09, 0.420725, -0.0139082, 0.0677594, 0.904547, 1, 1, 1 )
tracks/31/type = "transform"
tracks/31/path = NodePath("Armature/Skeleton:RightHandRing2")
tracks/31/interp = 1
tracks/31/loop_wrap = true
tracks/31/imported = true
tracks/31/enabled = true
tracks/31/keys = PoolRealArray( 0, 1, -1.18234e-10, -1.28057e-09, 2.621e-09, 0.754459, -0.0170605, 0.120246, 0.645013, 1, 1, 1, 1.4, 1, -1.18234e-10, -1.28057e-09, 2.621e-09, 0.754459, -0.0170605, 0.120246, 0.645013, 1, 1, 1 )
tracks/32/type = "transform"
tracks/32/path = NodePath("Armature/Skeleton:RightHandRing1")
tracks/32/interp = 1
tracks/32/loop_wrap = true
tracks/32/imported = true
tracks/32/enabled = true
tracks/32/keys = PoolRealArray( 0, 1, 1.16415e-10, 1.16415e-09, 7.34872e-10, 0.472882, 0.0609095, 0.0451989, 0.877855, 1, 1, 1, 1.4, 1, 1.16415e-10, 1.16415e-09, 7.34872e-10, 0.472882, 0.0609095, 0.0451989, 0.877855, 1, 1, 1 )
tracks/33/type = "transform"
tracks/33/path = NodePath("Armature/Skeleton:RightHandPinky3")
tracks/33/interp = 1
tracks/33/loop_wrap = true
tracks/33/imported = true
tracks/33/enabled = true
tracks/33/keys = PoolRealArray( 0, 1, -4.09727e-10, 4.94765e-10, 1.30511e-09, 0.486049, -0.00552328, 0.112875, 0.866594, 1, 1, 1, 1.4, 1, -4.09727e-10, 4.94765e-10, 1.30511e-09, 0.486049, -0.00552328, 0.112875, 0.866594, 1, 1, 1 )
tracks/34/type = "transform"
tracks/34/path = NodePath("Armature/Skeleton:RightHandPinky2")
tracks/34/interp = 1
tracks/34/loop_wrap = true
tracks/34/imported = true
tracks/34/enabled = true
tracks/34/keys = PoolRealArray( 0, 1, -7.7307e-11, 1.16415e-10, 1.01147e-09, 0.642568, -0.0172503, 0.150703, 0.751064, 1, 1, 1, 1.4, 1, -7.7307e-11, 1.16415e-10, 1.01147e-09, 0.642568, -0.0172503, 0.150703, 0.751064, 1, 1, 1 )
tracks/35/type = "transform"
tracks/35/path = NodePath("Armature/Skeleton:RightHandPinky1")
tracks/35/interp = 1
tracks/35/loop_wrap = true
tracks/35/imported = true
tracks/35/enabled = true
tracks/35/keys = PoolRealArray( 0, 1, 2.91038e-10, -6.98492e-10, 6.98492e-10, 0.526156, 0.0610891, 0.0853276, 0.843888, 1, 1, 1, 1.4, 1, 2.91038e-10, -6.98492e-10, 6.98492e-10, 0.526156, 0.0610891, 0.0853276, 0.843888, 1, 1, 1 )
tracks/36/type = "transform"
tracks/36/path = NodePath("Armature/Skeleton:RightHand")
tracks/36/interp = 1
tracks/36/loop_wrap = true
tracks/36/imported = true
tracks/36/enabled = true
tracks/36/keys = PoolRealArray( 0, 1, 7.30506e-09, 1.21072e-08, -7.06023e-08, -0.0898291, 0.363443, 0.311535, 0.873376, 1, 1, 1, 0.0666667, 1, 7.30506e-09, 1.21072e-08, -7.06023e-08, -0.0973501, 0.364131, 0.303704, 0.87504, 1, 1, 1, 0.133333, 1, 7.30506e-09, 1.21072e-08, -7.06023e-08, -0.111456, 0.365339, 0.293069, 0.876479, 1, 1, 1, 0.2, 1, 7.30506e-09, 1.21072e-08, -7.06023e-08, -0.12277, 0.371359, 0.284249, 0.875341, 1, 1, 1, 0.266667, 1, 7.30506e-09, 1.21072e-08, -7.06023e-08, -0.124525, 0.373211, 0.283889, 0.874422, 1, 1, 1, 0.333333, 1, 7.30506e-09, 1.21072e-08, -7.06023e-08, -0.119242, 0.367632, 0.284978, 0.877163, 1, 1, 1, 0.4, 1, 7.30506e-09, 1.21072e-08, -7.06023e-08, -0.113596, 0.364788, 0.288715, 0.877877, 1, 1, 1, 0.466667, 1, 7.30506e-09, 1.21072e-08, -7.06023e-08, -0.110787, 0.370332, 0.29788, 0.872839, 1, 1, 1, 0.533333, 1, 7.30506e-09, 1.21072e-08, -7.06023e-08, -0.104265, 0.3735, 0.306712, 0.869227, 1, 1, 1, 0.6, 1, 7.30506e-09, 1.21072e-08, -7.06023e-08, -0.0938817, 0.366156, 0.319583, 0.868898, 1, 1, 1, 0.666667, 1, 7.30506e-09, 1.21072e-08, -7.06023e-08, -0.0828555, 0.362091, 0.324432, 0.869925, 1, 1, 1, 0.733333, 1, 7.30506e-09, 1.21072e-08, -7.06023e-08, -0.0803958, 0.361237, 0.323136, 0.870992, 1, 1, 1, 0.8, 1, 7.30506e-09, 1.21072e-08, -7.06023e-08, -0.0808987, 0.354711, 0.318813, 0.875211, 1, 1, 1, 0.866667, 1, 7.30506e-09, 1.21072e-08, -7.06023e-08, -0.0833331, 0.35052, 0.311139, 0.879422, 1, 1, 1, 0.933333, 1, 7.30506e-09, 1.21072e-08, -7.06023e-08, -0.0861612, 0.350601, 0.307317, 0.880461, 1, 1, 1, 1, 1, 7.30506e-09, 1.21072e-08, -7.06023e-08, -0.0846346, 0.35081, 0.304661, 0.881448, 1, 1, 1, 1.06667, 1, 7.30506e-09, 1.21072e-08, -7.06023e-08, -0.0792684, 0.354825, 0.31176, 0.877851, 1, 1, 1, 1.13333, 1, 7.30506e-09, 1.21072e-08, -7.06023e-08, -0.0717764, 0.355976, 0.320679, 0.874811, 1, 1, 1, 1.2, 1, 7.30506e-09, 1.21072e-08, -7.06023e-08, -0.0687986, 0.355634, 0.325186, 0.873525, 1, 1, 1, 1.26667, 1, 7.30506e-09, 1.21072e-08, -7.06023e-08, -0.0705317, 0.35871, 0.324486, 0.872388, 1, 1, 1, 1.33333, 1, 7.30506e-09, 1.21072e-08, -7.06023e-08, -0.0813566, 0.367358, 0.316967, 0.870609, 1, 1, 1, 1.4, 1, 7.30506e-09, 1.21072e-08, -7.06023e-08, -0.089829, 0.363443, 0.311535, 0.873376, 1, 1, 1 )
tracks/37/type = "transform"
tracks/37/path = NodePath("Armature/Skeleton:RightForeArm")
tracks/37/interp = 1
tracks/37/loop_wrap = true
tracks/37/imported = true
tracks/37/enabled = true
tracks/37/keys = PoolRealArray( 0, 1, -1.13873e-08, -2.86382e-08, -6.8216e-08, 0.0293722, -2.39126e-08, -0.748841, 0.662099, 1, 1, 1, 0.0666667, 1, -1.13873e-08, -2.86382e-08, -6.8216e-08, 0.0294147, -1.36696e-07, -0.749924, 0.66087, 1, 1, 1, 0.2, 1, -1.13873e-08, -2.86382e-08, -6.8216e-08, 0.0296376, -1.80754e-07, -0.755603, 0.654359, 1, 1, 1, 0.466667, 1, -1.13873e-08, -2.86382e-08, -6.8216e-08, 0.0301467, -9.32723e-08, -0.768583, 0.639039, 1, 1, 1, 0.533333, 1, -1.13873e-08, -2.86382e-08, -6.8216e-08, 0.0301585, -5.83285e-09, -0.768886, 0.638674, 1, 1, 1, 0.6, 1, -1.13873e-08, -2.86382e-08, -6.8216e-08, 0.0303871, -1.32713e-07, -0.774713, 0.631583, 1, 1, 1, 0.666667, 1, -1.13873e-08, -2.86382e-08, -6.8216e-08, 0.0303263, -1.51427e-07, -0.773163, 0.633482, 1, 1, 1, 0.733333, 1, -1.13873e-08, -2.86382e-08, -6.8216e-08, 0.0302512, -1.21576e-07, -0.771249, 0.635814, 1, 1, 1, 0.8, 1, -1.13873e-08, -2.86382e-08, -6.8216e-08, 0.030112, -5.09236e-08, -0.767699, 0.640102, 1, 1, 1, 0.866667, 1, -1.13873e-08, -2.86382e-08, -6.8216e-08, 0.0299396, 1.58746e-08, -0.763307, 0.645342, 1, 1, 1, 0.933333, 1, -1.13873e-08, -2.86382e-08, -6.8216e-08, 0.0298455, -1.86789e-08, -0.760906, 0.648175, 1, 1, 1, 1, 1, -1.13873e-08, -2.86382e-08, -6.8216e-08, 0.029773, -9.45157e-08, -0.75906, 0.65034, 1, 1, 1, 1.06667, 1, -1.13873e-08, -2.86382e-08, -6.8216e-08, 0.0297763, -8.0207e-08, -0.759142, 0.650244, 1, 1, 1, 1.13333, 1, -1.13873e-08, -2.86382e-08, -6.8216e-08, 0.0297296, -6.14562e-08, -0.757952, 0.651632, 1, 1, 1, 1.2, 1, -1.13873e-08, -2.86382e-08, -6.8216e-08, 0.0296474, -5.12605e-08, -0.755858, 0.654064, 1, 1, 1, 1.26667, 1, -1.13873e-08, -2.86382e-08, -6.8216e-08, 0.029529, -5.52384e-08, -0.752838, 0.657543, 1, 1, 1, 1.4, 1, -1.13873e-08, -2.86382e-08, -6.8216e-08, 0.0293723, -1.30816e-07, -0.748841, 0.662098, 1, 1, 1 )
tracks/38/type = "transform"
tracks/38/path = NodePath("Armature/Skeleton:RightArm")
tracks/38/interp = 1
tracks/38/loop_wrap = true
tracks/38/imported = true
tracks/38/enabled = true
tracks/38/keys = PoolRealArray( 0, 1, 5.53246e-09, 1.57161e-08, 9.13278e-08, 0.272766, -0.0216604, -0.55447, 0.785934, 1, 1, 1, 0.0666667, 1, 5.53246e-09, 1.57161e-08, 9.13278e-08, 0.276578, -0.029593, -0.553325, 0.78515, 1, 1, 1, 0.133333, 1, 5.53246e-09, 1.57161e-08, 9.13278e-08, 0.283134, -0.0404012, -0.551299, 0.783755, 1, 1, 1, 0.2, 1, 5.53246e-09, 1.57161e-08, 9.13278e-08, 0.284884, -0.0472383, -0.548027, 0.785032, 1, 1, 1, 0.266667, 1, 5.53246e-09, 1.57161e-08, 9.13278e-08, 0.284837, -0.050355, -0.541081, 0.78966, 1, 1, 1, 0.333333, 1, 5.53246e-09, 1.57161e-08, 9.13278e-08, 0.288177, -0.0497181, -0.535255, 0.792455, 1, 1, 1, 0.4, 1, 5.53246e-09, 1.57161e-08, 9.13278e-08, 0.286343, -0.049661, -0.531844, 0.795414, 1, 1, 1, 0.466667, 1, 5.53246e-09, 1.57161e-08, 9.13278e-08, 0.279533, -0.0389106, -0.541956, 0.791601, 1, 1, 1, 0.533333, 1, 5.53246e-09, 1.57161e-08, 9.13278e-08, 0.27749, -0.0254413, -0.55689, 0.782448, 1, 1, 1, 0.6, 1, 5.53246e-09, 1.57161e-08, 9.13278e-08, 0.277889, -0.0183676, -0.558629, 0.781264, 1, 1, 1, 0.666667, 1, 5.53246e-09, 1.57161e-08, 9.13278e-08, 0.282573, -0.0126942, -0.567191, 0.773489, 1, 1, 1, 0.733333, 1, 5.53246e-09, 1.57161e-08, 9.13278e-08, 0.282782, -0.0122336, -0.572716, 0.769338, 1, 1, 1, 0.8, 1, 5.53246e-09, 1.57161e-08, 9.13278e-08, 0.286523, -0.0172574, -0.573788, 0.767056, 1, 1, 1, 0.866667, 1, 5.53246e-09, 1.57161e-08, 9.13278e-08, 0.290169, -0.0268335, -0.571476, 0.767135, 1, 1, 1, 0.933333, 1, 5.53246e-09, 1.57161e-08, 9.13278e-08, 0.291403, -0.0355396, -0.566006, 0.770362, 1, 1, 1, 1, 1, 5.53246e-09, 1.57161e-08, 9.13278e-08, 0.298984, -0.0443434, -0.560426, 0.77108, 1, 1, 1, 1.06667, 1, 5.53246e-09, 1.57161e-08, 9.13278e-08, 0.29821, -0.0431855, -0.556659, 0.774168, 1, 1, 1, 1.13333, 1, 5.53246e-09, 1.57161e-08, 9.13278e-08, 0.298081, -0.033492, -0.556653, 0.774702, 1, 1, 1, 1.2, 1, 5.53246e-09, 1.57161e-08, 9.13278e-08, 0.298246, -0.0213164, -0.555143, 0.776152, 1, 1, 1, 1.26667, 1, 5.53246e-09, 1.57161e-08, 9.13278e-08, 0.288745, -0.0144874, -0.555555, 0.7796, 1, 1, 1, 1.33333, 1, 5.53246e-09, 1.57161e-08, 9.13278e-08, 0.275712, -0.0161619, -0.554287, 0.785167, 1, 1, 1, 1.4, 1, 5.53246e-09, 1.57161e-08, 9.13278e-08, 0.272766, -0.0216604, -0.55447, 0.785934, 1, 1, 1 )
tracks/39/type = "transform"
tracks/39/path = NodePath("Armature/Skeleton:RightShoulder")
tracks/39/interp = 1
tracks/39/loop_wrap = true
tracks/39/imported = true
tracks/39/enabled = true
tracks/39/keys = PoolRealArray( 0, 1, -2.27374e-11, 2.91038e-10, 2.32831e-10, 0.104357, -0.0161547, -0.0407273, 0.993574, 1, 1, 1, 0.0666667, 1, -2.27374e-11, 2.91038e-10, 2.32831e-10, 0.1036, -0.0159015, -0.0397958, 0.993695, 1, 1, 1, 0.133333, 1, -2.27374e-11, 2.91038e-10, 2.32831e-10, 0.10063, -0.0153899, -0.0381328, 0.994074, 1, 1, 1, 0.2, 1, -2.27374e-11, 2.91038e-10, 2.32831e-10, 0.0988246, -0.0153351, -0.0382107, 0.994253, 1, 1, 1, 0.266667, 1, -2.27374e-11, 2.91038e-10, 2.32831e-10, 0.1028, -0.0160444, -0.0405528, 0.993746, 1, 1, 1, 0.333333, 1, -2.27374e-11, 2.91038e-10, 2.32831e-10, 0.106698, -0.0164383, -0.0415897, 0.993285, 1, 1, 1, 0.4, 1, -2.27374e-11, 2.91038e-10, 2.32831e-10, 0.110301, -0.0170765, -0.0437453, 0.992788, 1, 1, 1, 0.466667, 1, -2.27374e-11, 2.91038e-10, 2.32831e-10, 0.111328, -0.0177443, -0.0463527, 0.992544, 1, 1, 1, 0.533333, 1, -2.27374e-11, 2.91038e-10, 2.32831e-10, 0.109867, -0.0178467, -0.0469659, 0.992676, 1, 1, 1, 0.6, 1, -2.27374e-11, 2.91038e-10, 2.32831e-10, 0.117586, -0.0195359, -0.0527058, 0.991471, 1, 1, 1, 0.666667, 1, -2.27374e-11, 2.91038e-10, 2.32831e-10, 0.115563, -0.0186223, -0.0491939, 0.991906, 1, 1, 1, 0.733333, 1, -2.27374e-11, 2.91038e-10, 2.32831e-10, 0.108431, -0.0175836, -0.0459479, 0.992886, 1, 1, 1, 0.8, 1, -2.27374e-11, 2.91038e-10, 2.32831e-10, 0.104107, -0.0167564, -0.0431778, 0.993487, 1, 1, 1, 0.866667, 1, -2.27374e-11, 2.91038e-10, 2.32831e-10, 0.100838, -0.0161251, -0.0410974, 0.993923, 1, 1, 1, 0.933333, 1, -2.27374e-11, 2.91038e-10, 2.32831e-10, 0.100854, -0.0164613, -0.0425785, 0.993853, 1, 1, 1, 1, 1, -2.27374e-11, 2.91038e-10, 2.32831e-10, 0.0964503, -0.0152789, -0.0384446, 0.994478, 1, 1, 1, 1.06667, 1, -2.27374e-11, 2.91038e-10, 2.32831e-10, 0.0933605, -0.0145479, -0.0359927, 0.994875, 1, 1, 1, 1.13333, 1, -2.27374e-11, 2.91038e-10, 2.32831e-10, 0.0925603, -0.0137555, -0.032847, 0.99507, 1, 1, 1, 1.2, 1, -2.27374e-11, 2.91038e-10, 2.32831e-10, 0.0987599, -0.0147124, -0.0357437, 0.99436, 1, 1, 1, 1.26667, 1, -2.27374e-11, 2.91038e-10, 2.32831e-10, 0.100928, -0.0152091, -0.0374612, 0.994072, 1, 1, 1, 1.33333, 1, -2.27374e-11, 2.91038e-10, 2.32831e-10, 0.103849, -0.0161767, -0.040974, 0.993617, 1, 1, 1, 1.4, 1, -2.27374e-11, 2.91038e-10, 2.32831e-10, 0.104358, -0.0161547, -0.0407273, 0.993574, 1, 1, 1 )
tracks/40/type = "transform"
tracks/40/path = NodePath("Armature/Skeleton:Spine2")
tracks/40/interp = 1
tracks/40/loop_wrap = true
tracks/40/imported = true
tracks/40/enabled = true
tracks/40/keys = PoolRealArray( 0, 1, -1.77494e-27, -1.49012e-07, -1.89463e-09, 0.0174284, -0.0206864, 0.00673495, 0.999611, 1, 1, 1, 0.0666667, 1, -1.77494e-27, -1.49012e-07, -1.89463e-09, 0.0174202, -0.0212961, 0.00456246, 0.999611, 1, 1, 1, 0.133333, 1, -1.77494e-27, -1.49012e-07, -1.89463e-09, 0.0180897, -0.0209347, 0.000791034, 0.999617, 1, 1, 1, 0.2, 1, -1.77494e-27, -1.49012e-07, -1.89463e-09, 0.0190336, -0.019798, -0.00259981, 0.99962, 1, 1, 1, 0.266667, 1, -1.77494e-27, -1.49012e-07, -1.89463e-09, 0.0201142, -0.0185222, -0.00306022, 0.999622, 1, 1, 1, 0.333333, 1, -1.77494e-27, -1.49012e-07, -1.89463e-09, 0.0217505, -0.0178119, -0.00319092, 0.9996, 1, 1, 1, 0.4, 1, -1.77494e-27, -1.49012e-07, -1.89463e-09, 0.022003, -0.0165952, -0.00203821, 0.999618, 1, 1, 1, 0.466667, 1, -1.77494e-27, -1.49012e-07, -1.89463e-09, 0.0233795, -0.0153498, -0.00462832, 0.999598, 1, 1, 1, 0.533333, 1, -1.77494e-27, -1.49012e-07, -1.89463e-09, 0.0252728, -0.0171292, -0.00734059, 0.999507, 1, 1, 1, 0.6, 1, -1.77494e-27, -1.49012e-07, -1.89463e-09, 0.0266269, -0.0195656, -0.0088397, 0.999415, 1, 1, 1, 0.666667, 1, -1.77494e-27, -1.49012e-07, -1.89463e-09, 0.0277034, -0.0222311, -0.00964729, 0.999322, 1, 1, 1, 0.733333, 1, -1.77494e-27, -1.49012e-07, -1.89463e-09, 0.0285807, -0.0250831, -0.00909496, 0.999235, 1, 1, 1, 0.8, 1, -1.77494e-27, -1.49012e-07, -1.89463e-09, 0.0290563, -0.0284167, -0.00830017, 0.999139, 1, 1, 1, 0.866667, 1, -1.77494e-27, -1.49012e-07, -1.89463e-09, 0.0276453, -0.0301034, -0.00784908, 0.999134, 1, 1, 1, 0.933333, 1, -1.77494e-27, -1.49012e-07, -1.89463e-09, 0.0250822, -0.0288661, -0.00792902, 0.999237, 1, 1, 1, 1, 1, -1.77494e-27, -1.49012e-07, -1.89463e-09, 0.0211805, -0.030326, -0.00537797, 0.999301, 1, 1, 1, 1.06667, 1, -1.77494e-27, -1.49012e-07, -1.89463e-09, 0.0158742, -0.0332375, 0.000802003, 0.999321, 1, 1, 1, 1.13333, 1, -1.77494e-27, -1.49012e-07, -1.89463e-09, 0.0146906, -0.0342931, 0.00463616, 0.999293, 1, 1, 1, 1.2, 1, -1.77494e-27, -1.49012e-07, -1.89463e-09, 0.015364, -0.0284994, 0.00275671, 0.999472, 1, 1, 1, 1.26667, 1, -1.77494e-27, -1.49012e-07, -1.89463e-09, 0.016993, -0.0251831, 0.00460315, 0.999528, 1, 1, 1, 1.33333, 1, -1.77494e-27, -1.49012e-07, -1.89463e-09, 0.0170883, -0.0235, 0.00312231, 0.999573, 1, 1, 1, 1.4, 1, -1.77494e-27, -1.49012e-07, -1.89463e-09, 0.0174284, -0.0206864, 0.00673496, 0.999611, 1, 1, 1 )
tracks/41/type = "transform"
tracks/41/path = NodePath("Armature/Skeleton:Spine1")
tracks/41/interp = 1
tracks/41/loop_wrap = true
tracks/41/imported = true
tracks/41/enabled = true
tracks/41/keys = PoolRealArray( 0, 1, 1.81899e-12, 1.04308e-07, 2.37311e-11, 0.0175292, -0.0207156, 0.00637789, 0.999611, 1, 1, 1, 0.0666667, 1, 1.81899e-12, 1.04308e-07, 2.37311e-11, 0.0176074, -0.0212527, 0.00417556, 0.99961, 1, 1, 1, 0.133333, 1, 1.81899e-12, 1.04308e-07, 2.37311e-11, 0.0183914, -0.0207235, 0.000451343, 0.999616, 1, 1, 1, 0.2, 1, 1.81899e-12, 1.04308e-07, 2.37311e-11, 0.019427, -0.0194812, -0.0028208, 0.999618, 1, 1, 1, 0.266667, 1, 1.81899e-12, 1.04308e-07, 2.37311e-11, 0.0204881, -0.0181655, -0.0033053, 0.99962, 1, 1, 1, 0.333333, 1, 1.81899e-12, 1.04308e-07, 2.37311e-11, 0.022101, -0.017444, -0.00342788, 0.999598, 1, 1, 1, 0.4, 1, 1.81899e-12, 1.04308e-07, 2.37311e-11, 0.0223072, -0.0162668, -0.00229983, 0.999616, 1, 1, 1, 0.466667, 1, 1.81899e-12, 1.04308e-07, 2.37311e-11, 0.0237245, -0.0149421, -0.00487692, 0.999595, 1, 1, 1, 0.533333, 1, 1.81899e-12, 1.04308e-07, 2.37311e-11, 0.0257159, -0.0166249, -0.0075504, 0.999503, 1, 1, 1, 0.6, 1, 1.81899e-12, 1.04308e-07, 2.37311e-11, 0.027133, -0.0190526, -0.00896182, 0.99941, 1, 1, 1, 0.666667, 1, 1.81899e-12, 1.04308e-07, 2.37311e-11, 0.0282549, -0.0217366, -0.00966654, 0.999318, 1, 1, 1, 0.733333, 1, 1.81899e-12, 1.04308e-07, 2.37311e-11, 0.0291309, -0.0246223, -0.00903035, 0.999232, 1, 1, 1, 0.8, 1, 1.81899e-12, 1.04308e-07, 2.37311e-11, 0.0296052, -0.0280086, -0.00820274, 0.999135, 1, 1, 1, 0.866667, 1, 1.81899e-12, 1.04308e-07, 2.37311e-11, 0.0282027, -0.029755, -0.00775925, 0.999129, 1, 1, 1, 0.933333, 1, 1.81899e-12, 1.04308e-07, 2.37311e-11, 0.0256258, -0.0285569, -0.00774972, 0.999234, 1, 1, 1, 1, 1, 1.81899e-12, 1.04308e-07, 2.37311e-11, 0.0216047, -0.0300886, -0.00515283, 0.999301, 1, 1, 1, 1.06667, 1, 1.81899e-12, 1.04308e-07, 2.37311e-11, 0.0160579, -0.0331299, 0.000830458, 0.999322, 1, 1, 1, 1.13333, 1, 1.81899e-12, 1.04308e-07, 2.37311e-11, 0.0148939, -0.0341964, 0.00470691, 0.999293, 1, 1, 1, 1.2, 1, 1.81899e-12, 1.04308e-07, 2.37311e-11, 0.0157231, -0.028358, 0.00280781, 0.99947, 1, 1, 1, 1.26667, 1, 1.81899e-12, 1.04308e-07, 2.37311e-11, 0.0172908, -0.0250759, 0.00454147, 0.999526, 1, 1, 1, 1.33333, 1, 1.81899e-12, 1.04308e-07, 2.37311e-11, 0.0160921, -0.0220485, 0.00455847, 0.999617, 1, 1, 1, 1.4, 1, 1.81899e-12, 1.04308e-07, 2.37311e-11, 0.0175292, -0.0207156, 0.0063779, 0.999611, 1, 1, 1 )
tracks/42/type = "transform"
tracks/42/path = NodePath("Armature/Skeleton:Spine")
tracks/42/interp = 1
tracks/42/loop_wrap = true
tracks/42/imported = true
tracks/42/enabled = true
tracks/42/keys = PoolRealArray( 0, 1, 2.4869e-14, 8.14907e-10, 1.81899e-12, 0.1165, -0.0473442, 0.0528001, 0.990656, 1, 1, 1, 0.0666667, 1, 2.4869e-14, 8.14907e-10, 1.81899e-12, 0.117877, -0.0453473, 0.0450132, 0.99097, 1, 1, 1, 0.133333, 1, 2.4869e-14, 8.14907e-10, 1.81899e-12, 0.118533, -0.0438858, 0.0322106, 0.991457, 1, 1, 1, 0.2, 1, 2.4869e-14, 8.14907e-10, 1.81899e-12, 0.117252, -0.0403308, 0.02164, 0.992047, 1, 1, 1, 0.266667, 1, 2.4869e-14, 8.14907e-10, 1.81899e-12, 0.120285, -0.0307929, 0.0138226, 0.992165, 1, 1, 1, 0.333333, 1, 2.4869e-14, 8.14907e-10, 1.81899e-12, 0.123619, -0.0222763, 0.00797093, 0.992048, 1, 1, 1, 0.4, 1, 2.4869e-14, 8.14907e-10, 1.81899e-12, 0.122163, -0.0104887, 0.00731316, 0.992428, 1, 1, 1, 0.466667, 1, 2.4869e-14, 8.14907e-10, 1.81899e-12, 0.128957, -0.00745613, 0.00640282, 0.991602, 1, 1, 1, 0.533333, 1, 2.4869e-14, 8.14907e-10, 1.81899e-12, 0.134646, -0.0140414, -0.00244482, 0.990791, 1, 1, 1, 0.6, 1, 2.4869e-14, 8.14907e-10, 1.81899e-12, 0.136853, -0.0282908, -0.0135415, 0.990095, 1, 1, 1, 0.666667, 1, 2.4869e-14, 8.14907e-10, 1.81899e-12, 0.136809, -0.0443524, -0.0197584, 0.989407, 1, 1, 1, 0.733333, 1, 2.4869e-14, 8.14907e-10, 1.81899e-12, 0.135151, -0.0581672, -0.0174607, 0.988962, 1, 1, 1, 0.8, 1, 2.4869e-14, 8.14907e-10, 1.81899e-12, 0.1308, -0.0701894, -0.0101781, 0.988869, 1, 1, 1, 0.866667, 1, 2.4869e-14, 8.14907e-10, 1.81899e-12, 0.119268, -0.0738082, 0.000494224, 0.990115, 1, 1, 1, 0.933333, 1, 2.4869e-14, 8.14907e-10, 1.81899e-12, 0.0996908, -0.0758848, 0.0081461, 0.992087, 1, 1, 1, 1, 1, 2.4869e-14, 8.14907e-10, 1.81899e-12, 0.0731361, -0.0801315, 0.010947, 0.994037, 1, 1, 1, 1.06667, 1, 2.4869e-14, 8.14907e-10, 1.81899e-12, 0.0606111, -0.0953153, 0.030304, 0.993138, 1, 1, 1, 1.13333, 1, 2.4869e-14, 8.14907e-10, 1.81899e-12, 0.0543661, -0.101945, 0.0524521, 0.991918, 1, 1, 1, 1.2, 1, 2.4869e-14, 8.14907e-10, 1.81899e-12, 0.0685149, -0.0858558, 0.0577864, 0.992268, 1, 1, 1, 1.26667, 1, 2.4869e-14, 8.14907e-10, 1.81899e-12, 0.0887679, -0.0709632, 0.0695168, 0.991086, 1, 1, 1, 1.4, 1, 2.4869e-14, 8.14907e-10, 1.81899e-12, 0.1165, -0.0473441, 0.0528001, 0.990656, 1, 1, 1 )
tracks/43/type = "transform"
tracks/43/path = NodePath("Armature/Skeleton:LeftToeBase")
tracks/43/interp = 1
tracks/43/loop_wrap = true
tracks/43/imported = true
tracks/43/enabled = true
tracks/43/keys = PoolRealArray( 0, 1, 2.62871e-10, 0, 0, 0.0731654, -0.0595188, 0.00148363, 0.995541, 1, 1, 1, 0.0666667, 1, 2.62871e-10, 0, 0, 0.0649335, -0.0698299, -0.000174875, 0.995443, 1, 1, 1, 0.133333, 1, 2.62871e-10, 0, 0, 0.0781694, -0.0358829, 0.00411947, 0.996286, 1, 1, 1, 0.266667, 1, 2.62871e-10, 0, 0, 0.000746711, -0.000342675, 3.94199e-05, 1, 1, 1, 1, 0.333333, 1, 2.62871e-10, 0, 0, 0.012495, -0.00573562, 0.000658495, 0.999905, 1, 1, 1, 0.4, 1, 2.62871e-10, 0, 0, 0.0345464, -0.0158582, 0.00182061, 0.999276, 1, 1, 1, 0.466667, 1, 2.62871e-10, 0, 0, 0.0306505, -0.0140698, 0.00161525, 0.99943, 1, 1, 1, 0.533333, 1, 2.62871e-10, 0, 0, 0.0329437, -0.0151224, 0.00173612, 0.999341, 1, 1, 1, 0.6, 1, 2.62871e-10, 0, 0, 0.0357904, -0.0164292, 0.00188618, 0.999223, 1, 1, 1, 0.8, 1, 2.62871e-10, 0, 0, 0.0255546, -0.0117306, 0.00134669, 0.999604, 1, 1, 1, 0.866667, 1, 2.62871e-10, 0, 0, 0.0313725, -0.0144012, 0.00165338, 0.999403, 1, 1, 1, 0.933333, 1, 2.62871e-10, 0, 0, 0.0642543, -0.0294953, 0.00338625, 0.997492, 1, 1, 1, 1, 1, 2.62871e-10, 0, 0, 0.115069, -0.0482933, 0.00632769, 0.992163, 1, 1, 1, 1.06667, 1, 2.62871e-10, 0, 0, 0.230594, -0.0446564, 0.0123456, 0.971946, 1, 1, 1, 1.13333, 1, 2.62871e-10, 0, 0, 0.380232, -0.0532775, 0.0163163, 0.923211, 1, 1, 1, 1.2, 1, 2.62871e-10, 0, 0, 0.466096, -0.052963, 0.00346393, 0.883141, 1, 1, 1, 1.26667, 1, 2.62871e-10, 0, 0, 0.397405, -0.00439595, -0.0154872, 0.917502, 1, 1, 1, 1.33333, 1, 2.62871e-10, 0, 0, 0.163071, -0.036664, 0.00941251, 0.985888, 1, 1, 1, 1.4, 1, 2.62871e-10, 0, 0, 0.0731656, -0.0595184, 0.0014836, 0.995541, 1, 1, 1 )
tracks/44/type = "transform"
tracks/44/path = NodePath("Armature/Skeleton:LeftFoot")
tracks/44/interp = 1
tracks/44/loop_wrap = true
tracks/44/imported = true
tracks/44/enabled = true
tracks/44/keys = PoolRealArray( 0, 1, 6.63567e-09, 4.23752e-08, -3.14321e-08, -0.0431326, 0.104924, 0.132615, 0.984654, 1, 1, 1, 0.0666667, 1, 6.63567e-09, 4.23752e-08, -3.14321e-08, -0.0130328, 0.100884, 0.0929451, 0.990461, 1, 1, 1, 0.133333, 1, 6.63567e-09, 4.23752e-08, -3.14321e-08, 0.0192136, 0.072978, 0.0324006, 0.996622, 1, 1, 1, 0.2, 1, 6.63567e-09, 4.23752e-08, -3.14321e-08, 0.0459559, 0.0193038, 0.00890224, 0.998717, 1, 1, 1, 0.266667, 1, 6.63567e-09, 4.23752e-08, -3.14321e-08, 0.0791505, -0.0265352, 0.00382602, 0.996502, 1, 1, 1, 0.333333, 1, 6.63567e-09, 4.23752e-08, -3.14321e-08, 0.075848, -0.0427226, 0.0131397, 0.996117, 1, 1, 1, 0.4, 1, 6.63567e-09, 4.23752e-08, -3.14321e-08, -0.0447168, -0.0250623, 0.0273868, 0.99831, 1, 1, 1, 0.466667, 1, 6.63567e-09, 4.23752e-08, -3.14321e-08, 0.0252173, -0.0330218, 0.0172536, 0.998987, 1, 1, 1, 0.533333, 1, 6.63567e-09, 4.23752e-08, -3.14321e-08, 0.106471, -0.0611855, 0.0162209, 0.992299, 1, 1, 1, 0.6, 1, 6.63567e-09, 4.23752e-08, -3.14321e-08, 0.167238, -0.0724112, 0.0258239, 0.982915, 1, 1, 1, 0.666667, 1, 6.63567e-09, 4.23752e-08, -3.14321e-08, 0.211047, -0.061654, 0.0261188, 0.97518, 1, 1, 1, 0.733333, 1, 6.63567e-09, 4.23752e-08, -3.14321e-08, 0.234767, -0.0437848, 0.0322755, 0.970529, 1, 1, 1, 0.8, 1, 6.63567e-09, 4.23752e-08, -3.14321e-08, 0.239115, -0.0205001, 0.0420996, 0.969862, 1, 1, 1, 0.866667, 1, 6.63567e-09, 4.23752e-08, -3.14321e-08, 0.206592, -0.0059141, 0.0532592, 0.976959, 1, 1, 1, 0.933333, 1, 6.63567e-09, 4.23752e-08, -3.14321e-08, 0.152538, 0.00316277, 0.0478554, 0.987133, 1, 1, 1, 1, 1, 6.63567e-09, 4.23752e-08, -3.14321e-08, 0.120774, 0.020677, 0.0396757, 0.991671, 1, 1, 1, 1.06667, 1, 6.63567e-09, 4.23752e-08, -3.14321e-08, 0.0914969, -0.000290287, -0.00121984, 0.995805, 1, 1, 1, 1.13333, 1, 6.63567e-09, 4.23752e-08, -3.14321e-08, -0.0147657, -0.00915326, -0.025029, 0.999536, 1, 1, 1, 1.2, 1, 6.63567e-09, 4.23752e-08, -3.14321e-08, -0.164486, -0.00224954, -0.0499496, 0.985111, 1, 1, 1, 1.26667, 1, 6.63567e-09, 4.23752e-08, -3.14321e-08, -0.251915, 0.0013368, -0.0529387, 0.9663, 1, 1, 1, 1.33333, 1, 6.63567e-09, 4.23752e-08, -3.14321e-08, -0.134687, 0.0415218, 0.0337491, 0.989442, 1, 1, 1, 1.4, 1, 6.63567e-09, 4.23752e-08, -3.14321e-08, -0.043132, 0.104924, 0.132615, 0.984654, 1, 1, 1 )
tracks/45/type = "transform"
tracks/45/path = NodePath("Armature/Skeleton:LeftLeg")
tracks/45/interp = 1
tracks/45/loop_wrap = true
tracks/45/imported = true
tracks/45/enabled = true
tracks/45/keys = PoolRealArray( 0, 1, -9.54606e-09, -5.9139e-08, -7.27596e-09, -0.602937, 0.0427904, -0.0207135, 0.796371, 1, 1, 1, 0.0666667, 1, -9.54606e-09, -5.9139e-08, -7.27596e-09, -0.579035, 0.0456114, -0.0194475, 0.813794, 1, 1, 1, 0.133333, 1, -9.54606e-09, -5.9139e-08, -7.27596e-09, -0.477615, 0.054228, -0.0127287, 0.876802, 1, 1, 1, 0.2, 1, -9.54606e-09, -5.9139e-08, -7.27596e-09, -0.349446, 0.0634505, -0.00509441, 0.934792, 1, 1, 1, 0.266667, 1, -9.54606e-09, -5.9139e-08, -7.27596e-09, -0.236323, 0.0505264, 0.012525, 0.970279, 1, 1, 1, 0.333333, 1, -9.54606e-09, -5.9139e-08, -7.27596e-09, -0.194202, 0.0277459, 0.0188762, 0.980387, 1, 1, 1, 0.4, 1, -9.54606e-09, -5.9139e-08, -7.27596e-09, -0.179363, 0.00626256, 0.0102224, 0.98371, 1, 1, 1, 0.466667, 1, -9.54606e-09, -5.9139e-08, -7.27596e-09, -0.284845, -0.0510503, 0.00360421, 0.957206, 1, 1, 1, 0.533333, 1, -9.54606e-09, -5.9139e-08, -7.27596e-09, -0.367909, -0.0760433, -0.00504389, 0.926734, 1, 1, 1, 0.6, 1, -9.54606e-09, -5.9139e-08, -7.27596e-09, -0.403285, -0.0792303, -0.0168048, 0.911483, 1, 1, 1, 0.666667, 1, -9.54606e-09, -5.9139e-08, -7.27596e-09, -0.396945, -0.0866031, -0.0208006, 0.913511, 1, 1, 1, 0.733333, 1, -9.54606e-09, -5.9139e-08, -7.27596e-09, -0.354427, -0.085416, -0.0275328, 0.930767, 1, 1, 1, 0.8, 1, -9.54606e-09, -5.9139e-08, -7.27596e-09, -0.280158, -0.0728153, -0.0260142, 0.956835, 1, 1, 1, 0.866667, 1, -9.54606e-09, -5.9139e-08, -7.27596e-09, -0.202143, -0.0411347, -0.0219418, 0.978246, 1, 1, 1, 0.933333, 1, -9.54606e-09, -5.9139e-08, -7.27596e-09, -0.142185, -0.0240203, -0.0258786, 0.98921, 1, 1, 1, 1, 1, -9.54606e-09, -5.9139e-08, -7.27596e-09, -0.124712, -0.0128632, -0.0241241, 0.991816, 1, 1, 1, 1.06667, 1, -9.54606e-09, -5.9139e-08, -7.27596e-09, -0.243841, 0.0107781, -0.0225277, 0.969494, 1, 1, 1, 1.13333, 1, -9.54606e-09, -5.9139e-08, -7.27596e-09, -0.34434, 0.0486053, -0.0230728, 0.937302, 1, 1, 1, 1.2, 1, -9.54606e-09, -5.9139e-08, -7.27596e-09, -0.398817, 0.0503641, -0.0132832, 0.91555, 1, 1, 1, 1.26667, 1, -9.54606e-09, -5.9139e-08, -7.27596e-09, -0.488574, 0.0490327, -0.00813508, 0.871106, 1, 1, 1, 1.33333, 1, -9.54606e-09, -5.9139e-08, -7.27596e-09, -0.57973, 0.0372378, -0.0185194, 0.813746, 1, 1, 1, 1.4, 1, -9.54606e-09, -5.9139e-08, -7.27596e-09, -0.602937, 0.0427902, -0.0207134, 0.796371, 1, 1, 1 )
tracks/46/type = "transform"
tracks/46/path = NodePath("Armature/Skeleton:LeftUpLeg")
tracks/46/interp = 1
tracks/46/loop_wrap = true
tracks/46/imported = true
tracks/46/enabled = true
tracks/46/keys = PoolRealArray( 0, 1, 1.16415e-10, 1.74623e-10, 2.18279e-11, 0.152198, -0.285099, 0.0583089, 0.944539, 0.999999, 1, 1, 0.0666667, 1, 1.16415e-10, 1.74623e-10, 2.18279e-11, 0.18021, -0.28118, 0.0685009, 0.94009, 1, 1, 1, 0.133333, 1, 1.16415e-10, 1.74623e-10, 2.18279e-11, 0.206807, -0.27342, 0.0772136, 0.936221, 1, 1, 1, 0.2, 1, 1.16415e-10, 1.74623e-10, 2.18279e-11, 0.198289, -0.261683, 0.078564, 0.941292, 1, 1, 1, 0.266667, 1, 1.16415e-10, 1.74623e-10, 2.18279e-11, 0.159244, -0.24353, 0.0754238, 0.953754, 1, 1, 1, 0.333333, 1, 1.16415e-10, 1.74623e-10, 2.18279e-11, 0.123575, -0.216423, 0.0624313, 0.966433, 1, 1, 1, 0.4, 1, 1.16415e-10, 1.74623e-10, 2.18279e-11, 0.107894, -0.184169, 0.0525795, 0.975539, 0.999999, 1, 1, 0.466667, 1, 1.16415e-10, 1.74623e-10, 2.18279e-11, 0.125722, -0.153982, 0.0389277, 0.979269, 1, 1, 1, 0.533333, 1, 1.16415e-10, 1.74623e-10, 2.18279e-11, 0.130988, -0.131741, 0.00895914, 0.982551, 1, 1, 1, 0.6, 1, 1.16415e-10, 1.74623e-10, 2.18279e-11, 0.115211, -0.123101, -0.0286879, 0.985266, 1, 1, 1, 0.666667, 1, 1.16415e-10, 1.74623e-10, 2.18279e-11, 0.0775171, -0.120162, -0.0652683, 0.987569, 1, 1, 1, 0.733333, 1, 1.16415e-10, 1.74623e-10, 2.18279e-11, 0.0233687, -0.112606, -0.0938268, 0.988924, 1, 1, 1, 0.8, 1, 1.16415e-10, 1.74623e-10, 2.18279e-11, -0.0439575, -0.105745, -0.117272, 0.986475, 1, 1, 1, 0.866667, 1, 1.16415e-10, 1.74623e-10, 2.18279e-11, -0.101673, -0.11014, -0.128508, 0.980315, 1, 1, 1, 0.933333, 1, 1.16415e-10, 1.74623e-10, 2.18279e-11, -0.140191, -0.118567, -0.129768, 0.974397, 0.999999, 1, 1, 1, 1, 1.16415e-10, 1.74623e-10, 2.18279e-11, -0.160617, -0.137386, -0.129946, 0.968732, 0.999999, 1, 1, 1.06667, 1, 1.16415e-10, 1.74623e-10, 2.18279e-11, -0.1263, -0.169596, -0.0859178, 0.973603, 1, 1, 1, 1.13333, 1, 1.16415e-10, 1.74623e-10, 2.18279e-11, -0.0915486, -0.20758, -0.0341348, 0.973326, 1, 1, 1, 1.2, 1, 1.16415e-10, 1.74623e-10, 2.18279e-11, -0.0724894, -0.233699, -0.00917615, 0.96956, 1, 1, 1, 1.26667, 1, 1.16415e-10, 1.74623e-10, 2.18279e-11, -0.00438594, -0.234811, 0.0240919, 0.971732, 1, 1, 1, 1.33333, 1, 1.16415e-10, 1.74623e-10, 2.18279e-11, 0.081606, -0.254881, 0.0417873, 0.962616, 1, 1, 1, 1.4, 1, 1.16415e-10, 1.74623e-10, 2.18279e-11, 0.152199, -0.285099, 0.0583089, 0.944539, 0.999999, 1, 1 )
tracks/47/type = "transform"
tracks/47/path = NodePath("Armature/Skeleton:RightToeBase")
tracks/47/interp = 1
tracks/47/loop_wrap = true
tracks/47/imported = true
tracks/47/enabled = true
tracks/47/keys = PoolRealArray( 0, 1, -1.78867e-10, 1.16415e-10, 1.16415e-10, 0.08986, 0.0406498, -0.00419583, 0.995116, 1, 1, 1, 0.0666667, 1, -1.78867e-10, 1.16415e-10, 1.16415e-10, 0.0891933, 0.0403483, -0.00416479, 0.995188, 1, 1, 1, 0.133333, 1, -1.78867e-10, 1.16415e-10, 1.16415e-10, 0.0899142, 0.0406744, -0.00419848, 0.99511, 1, 1, 1, 0.2, 1, -1.78867e-10, 1.16415e-10, 1.16415e-10, 0.0944174, 0.0427115, -0.00440874, 0.994606, 1, 1, 1, 0.266667, 1, -1.78867e-10, 1.16415e-10, 1.16415e-10, 0.100774, 0.045587, -0.00470568, 0.993853, 1, 1, 1, 0.333333, 1, -1.78867e-10, 1.16415e-10, 1.16415e-10, 0.10209, 0.0461821, -0.0047671, 0.993691, 1, 1, 1, 0.4, 1, -1.78867e-10, 1.16415e-10, 1.16415e-10, 0.0946295, 0.0428075, -0.00441858, 0.994582, 1, 1, 1, 0.466667, 1, -1.78867e-10, 1.16415e-10, 1.16415e-10, 0.132849, 0.0600967, -0.0062029, 0.989293, 1, 1, 1, 0.533333, 1, -1.78867e-10, 1.16415e-10, 1.16415e-10, 0.0681108, 0.176558, 0.0182596, 0.981761, 1, 1, 1, 0.6, 1, -1.78867e-10, 1.16415e-10, 1.16415e-10, 0.070558, 0.0616961, -0.000594723, 0.995598, 1, 1, 1, 0.666667, 1, -1.78867e-10, 1.16415e-10, 1.16415e-10, 0.091484, 0.0413844, -0.00427156, 0.994937, 1, 1, 1, 0.8, 1, -1.78867e-10, 1.16415e-10, 1.16415e-10, 0.0779818, 0.0352765, -0.00364121, 0.996324, 1, 1, 1, 0.866667, 1, -1.78867e-10, 1.16415e-10, 1.16415e-10, 0.0742074, 0.0335691, -0.00346516, 0.996672, 1, 1, 1, 0.933333, 1, -1.78867e-10, 1.16415e-10, 1.16415e-10, 0.0492255, 0.0222681, -0.00229853, 0.998537, 1, 1, 1, 1, 1, -1.78867e-10, 1.16415e-10, 1.16415e-10, 0.0343836, 0.0155542, -0.00160538, 0.999286, 1, 1, 1, 1.06667, 1, -1.78867e-10, 1.16415e-10, 1.16415e-10, 0.0627436, 0.0283833, -0.00292943, 0.997622, 1, 1, 1, 1.13333, 1, -1.78867e-10, 1.16415e-10, 1.16415e-10, 0.0692637, 0.0313328, -0.00323409, 0.997101, 1, 1, 1, 1.2, 1, -1.78867e-10, 1.16415e-10, 1.16415e-10, 0.073655, 0.0333193, -0.00343931, 0.996721, 1, 1, 1, 1.33333, 1, -1.78867e-10, 1.16415e-10, 1.16415e-10, 0.0860565, 0.0389293, -0.0040183, 0.995521, 1, 1, 1, 1.4, 1, -1.78867e-10, 1.16415e-10, 1.16415e-10, 0.08986, 0.0406498, -0.00419586, 0.995116, 1, 1, 1 )
tracks/48/type = "transform"
tracks/48/path = NodePath("Armature/Skeleton:RightFoot")
tracks/48/interp = 1
tracks/48/loop_wrap = true
tracks/48/imported = true
tracks/48/enabled = true
tracks/48/keys = PoolRealArray( 0, 1, 1.5425e-08, 2.09548e-09, 2.84053e-08, 0.159233, 0.0703552, 0.034735, 0.984118, 1, 1, 1, 0.0666667, 1, 1.5425e-08, 2.09548e-09, 2.84053e-08, 0.17749, 0.0785024, 0.0399059, 0.980175, 1, 1, 1, 0.133333, 1, 1.5425e-08, 2.09548e-09, 2.84053e-08, 0.19281, 0.093509, 0.0541785, 0.975267, 1, 1, 1, 0.2, 1, 1.5425e-08, 2.09548e-09, 2.84053e-08, 0.194685, 0.101001, 0.0635965, 0.973577, 1, 1, 1, 0.266667, 1, 1.5425e-08, 2.09548e-09, 2.84053e-08, 0.189497, 0.105019, 0.0720284, 0.973588, 1, 1, 1, 0.333333, 1, 1.5425e-08, 2.09548e-09, 2.84053e-08, 0.190187, 0.111196, 0.0758781, 0.972475, 1, 1, 1, 0.4, 1, 1.5425e-08, 2.09548e-09, 2.84053e-08, 0.191177, 0.101437, 0.0908675, 0.972062, 1, 1, 1, 0.466667, 1, 1.5425e-08, 2.09548e-09, 2.84053e-08, 0.16833, 0.0709508, 0.110494, 0.976945, 1, 1, 1, 0.533333, 1, 1.5425e-08, 2.09548e-09, 2.84053e-08, -0.0137704, 0.0249987, 0.0361259, 0.99894, 1, 1, 1, 0.6, 1, 1.5425e-08, 2.09548e-09, 2.84053e-08, -0.0882032, -0.0162728, -0.0193218, 0.995782, 1, 1, 1, 0.666667, 1, 1.5425e-08, 2.09548e-09, 2.84053e-08, -0.0954672, 0.00806759, 0.0152692, 0.995283, 1, 1, 1, 0.733333, 1, 1.5425e-08, 2.09548e-09, 2.84053e-08, -0.0579141, 0.0470844, 0.043832, 0.996247, 1, 1, 1, 0.8, 1, 1.5425e-08, 2.09548e-09, 2.84053e-08, -0.0291064, 0.0883955, 0.0808145, 0.992375, 1, 1, 1, 0.866667, 1, 1.5425e-08, 2.09548e-09, 2.84053e-08, 0.000804224, 0.116862, 0.101971, 0.987899, 1, 1, 1, 0.933333, 1, 1.5425e-08, 2.09548e-09, 2.84053e-08, 0.071429, 0.144683, 0.109495, 0.980804, 1, 1, 1, 1, 1, 1.5425e-08, 2.09548e-09, 2.84053e-08, 0.13532, 0.224484, 0.145289, 0.954037, 1, 1, 1, 1.06667, 1, 1.5425e-08, 2.09548e-09, 2.84053e-08, 0.0818104, 0.0769612, 0.0171207, 0.993524, 1, 1, 1, 1.13333, 1, 1.5425e-08, 2.09548e-09, 2.84053e-08, -0.00819675, -0.0184847, -0.0397426, 0.999005, 1, 1, 1, 1.2, 1, 1.5425e-08, 2.09548e-09, 2.84053e-08, -0.0109165, -0.0221354, -0.0366348, 0.999024, 1, 1, 1, 1.33333, 1, 1.5425e-08, 2.09548e-09, 2.84053e-08, 0.112031, 0.0441579, 0.0144552, 0.992618, 1, 1, 1, 1.4, 1, 1.5425e-08, 2.09548e-09, 2.84053e-08, 0.159232, 0.0703552, 0.0347352, 0.984118, 1, 1, 1 )
tracks/49/type = "transform"
tracks/49/path = NodePath("Armature/Skeleton:RightLeg")
tracks/49/interp = 1
tracks/49/loop_wrap = true
tracks/49/imported = true
tracks/49/enabled = true
tracks/49/keys = PoolRealArray( 0, 1, 1.92085e-09, -2.93367e-08, -6.98492e-09, -0.437183, 0.0469154, -0.0935882, 0.893259, 1, 1, 1, 0.0666667, 1, 1.92085e-09, -2.93367e-08, -6.98492e-09, -0.435907, 0.0415919, -0.0920154, 0.894309, 1, 1, 1, 0.133333, 1, 1.92085e-09, -2.93367e-08, -6.98492e-09, -0.419856, 0.0310809, -0.0879056, 0.902789, 1, 1, 1, 0.2, 1, 1.92085e-09, -2.93367e-08, -6.98492e-09, -0.392045, 0.0204563, -0.0841081, 0.915865, 1, 1, 1, 0.266667, 1, 1.92085e-09, -2.93367e-08, -6.98492e-09, -0.359673, 0.00166227, -0.0803962, 0.929607, 1, 1, 1, 0.333333, 1, 1.92085e-09, -2.93367e-08, -6.98492e-09, -0.327563, -0.0255479, -0.0714856, 0.941775, 1, 1, 1, 0.4, 1, 1.92085e-09, -2.93367e-08, -6.98492e-09, -0.309229, -0.0407221, -0.0639187, 0.947963, 1, 1, 1, 0.466667, 1, 1.92085e-09, -2.93367e-08, -6.98492e-09, -0.37675, -0.0349842, -0.0622828, 0.923557, 1, 1, 1, 0.533333, 1, 1.92085e-09, -2.93367e-08, -6.98492e-09, -0.489741, -0.022152, -0.0608199, 0.869462, 1, 1, 1, 0.6, 1, 1.92085e-09, -2.93367e-08, -6.98492e-09, -0.604279, 0.00405912, -0.0695241, 0.793724, 1, 1, 1, 0.666667, 1, 1.92085e-09, -2.93367e-08, -6.98492e-09, -0.660656, 0.0570832, -0.0989847, 0.741941, 1, 1, 1, 0.733333, 1, 1.92085e-09, -2.93367e-08, -6.98492e-09, -0.654553, 0.0647158, -0.103026, 0.746162, 1, 1, 1, 0.8, 1, 1.92085e-09, -2.93367e-08, -6.98492e-09, -0.575578, 0.0674951, -0.0997133, 0.808833, 1, 1, 1, 0.866667, 1, 1.92085e-09, -2.93367e-08, -6.98492e-09, -0.428589, 0.0818024, -0.0984106, 0.894391, 1, 1, 1, 0.933333, 1, 1.92085e-09, -2.93367e-08, -6.98492e-09, -0.28544, 0.0928667, -0.0744639, 0.950976, 1, 1, 1, 1, 1, 1.92085e-09, -2.93367e-08, -6.98492e-09, -0.211798, 0.0962278, -0.0447311, 0.971535, 1, 1, 1, 1.06667, 1, 1.92085e-09, -2.93367e-08, -6.98492e-09, -0.190552, 0.0966185, -0.0647263, 0.974764, 1, 1, 1, 1.13333, 1, 1.92085e-09, -2.93367e-08, -6.98492e-09, -0.193784, 0.0835366, -0.0750115, 0.974599, 1, 1, 1, 1.2, 1, 1.92085e-09, -2.93367e-08, -6.98492e-09, -0.27796, 0.0606121, -0.0849543, 0.954907, 1, 1, 1, 1.26667, 1, 1.92085e-09, -2.93367e-08, -6.98492e-09, -0.362005, 0.0659808, -0.0888753, 0.925581, 1, 1, 1, 1.33333, 1, 1.92085e-09, -2.93367e-08, -6.98492e-09, -0.414865, 0.0619533, -0.0932316, 0.902971, 1, 1, 1, 1.4, 1, 1.92085e-09, -2.93367e-08, -6.98492e-09, -0.437183, 0.0469152, -0.0935881, 0.893259, 1, 1, 1 )
tracks/50/type = "transform"
tracks/50/path = NodePath("Armature/Skeleton:RightUpLeg")
tracks/50/interp = 1
tracks/50/loop_wrap = true
tracks/50/imported = true
tracks/50/enabled = true
tracks/50/keys = PoolRealArray( 0, 1, -1.16415e-10, 7.567e-10, -4.36557e-11, 0.19087, 0.0160577, 0.060581, 0.979612, 1, 1, 1, 0.0666667, 1, -1.16415e-10, 7.567e-10, -4.36557e-11, 0.164879, 0.0183094, 0.0454672, 0.985095, 1, 1, 1, 0.133333, 1, -1.16415e-10, 7.567e-10, -4.36557e-11, 0.113178, 0.020282, 0.0124735, 0.993289, 1, 1, 1, 0.2, 1, -1.16415e-10, 7.567e-10, -4.36557e-11, 0.0631325, 0.0179985, -0.0176019, 0.997688, 1, 1, 1, 0.266667, 1, -1.16415e-10, 7.567e-10, -4.36557e-11, 0.0131371, 0.0208964, -0.046932, 0.998593, 1, 1, 1, 0.333333, 1, -1.16415e-10, 7.567e-10, -4.36557e-11, -0.0299908, 0.0286621, -0.0877752, 0.995276, 1, 1, 1, 0.4, 1, -1.16415e-10, 7.567e-10, -4.36557e-11, -0.051941, 0.0366435, -0.131174, 0.989319, 1, 0.999999, 1, 0.466667, 1, -1.16415e-10, 7.567e-10, -4.36557e-11, -0.0273688, 0.0357086, -0.174269, 0.98367, 1, 0.999999, 1, 0.533333, 1, -1.16415e-10, 7.567e-10, -4.36557e-11, 0.0459036, -0.017752, -0.184109, 0.981673, 1, 0.999999, 1, 0.6, 1, -1.16415e-10, 7.567e-10, -4.36557e-11, 0.124106, -0.0990677, -0.143297, 0.976857, 1, 1, 1, 0.666667, 1, -1.16415e-10, 7.567e-10, -4.36557e-11, 0.179083, -0.144857, -0.10771, 0.967132, 1, 1, 1, 0.733333, 1, -1.16415e-10, 7.567e-10, -4.36557e-11, 0.203434, -0.139266, -0.0663553, 0.966859, 1, 1, 1, 0.8, 1, -1.16415e-10, 7.567e-10, -4.36557e-11, 0.213469, -0.109599, -0.0352604, 0.970142, 1, 1, 1, 0.866667, 1, -1.16415e-10, 7.567e-10, -4.36557e-11, 0.215847, -0.065709, -0.00922475, 0.97417, 1, 1, 1, 0.933333, 1, -1.16415e-10, 7.567e-10, -4.36557e-11, 0.232911, -0.0363476, 0.0238088, 0.971527, 1, 1, 1, 1, 1, -1.16415e-10, 7.567e-10, -4.36557e-11, 0.243691, -0.0432743, 0.0235573, 0.968601, 1, 1, 1, 1.06667, 1, -1.16415e-10, 7.567e-10, -4.36557e-11, 0.259279, -0.0197275, 0.0639903, 0.963478, 1, 1, 1, 1.13333, 1, -1.16415e-10, 7.567e-10, -4.36557e-11, 0.262418, 0.00307088, 0.0896375, 0.960777, 1, 1, 1, 1.2, 1, -1.16415e-10, 7.567e-10, -4.36557e-11, 0.267104, 0.0171765, 0.101715, 0.958131, 1, 1, 1, 1.26667, 1, -1.16415e-10, 7.567e-10, -4.36557e-11, 0.257501, 0.014588, 0.106272, 0.960306, 1, 1, 1, 1.33333, 1, -1.16415e-10, 7.567e-10, -4.36557e-11, 0.233124, 0.00964591, 0.0857327, 0.968612, 1, 1, 1, 1.4, 1, -1.16415e-10, 7.567e-10, -4.36557e-11, 0.19087, 0.0160578, 0.0605809, 0.979613, 1, 1, 1 )
tracks/51/type = "transform"
tracks/51/path = NodePath("Armature/Skeleton:Hips")
tracks/51/interp = 1
tracks/51/loop_wrap = true
tracks/51/imported = true
tracks/51/enabled = true
tracks/51/keys = PoolRealArray( 0, 1, 5.49829e-05, -0.000936942, 7.10763e-05, -0.0868471, -0.279046, -0.00413444, 0.956334, 1, 1, 1, 0.0666667, 1, 4.91974e-06, -0.000873903, 9.12762e-05, -0.0911188, -0.281619, -0.000293177, 0.95519, 1, 1, 1, 0.133333, 1, -6.20419e-05, -0.000729957, 0.000110707, -0.097671, -0.285588, 0.00650438, 0.95334, 1, 1, 1, 0.2, 1, -9.23989e-05, -0.000587082, 9.95494e-05, -0.102794, -0.293052, 0.0105745, 0.950496, 1, 1, 1, 0.266667, 1, -8.65222e-05, -0.00048252, 7.24352e-05, -0.10998, -0.305976, 0.00950956, 0.945618, 1, 1, 1, 0.333333, 1, -1.88438e-05, -0.000441763, 5.85644e-05, -0.115173, -0.31722, 0.0114778, 0.941262, 1, 1, 1, 0.4, 1, 8.56218e-05, -0.000470892, 6.0676e-05, -0.113076, -0.333235, 0.0129999, 0.935949, 1, 1, 1, 0.466667, 1, 0.000182933, -0.000646833, 6.23374e-05, -0.117929, -0.343028, 0.014814, 0.931775, 1, 1, 1, 0.533333, 1, 0.00025458, -0.000857661, 3.28769e-05, -0.124879, -0.337419, 0.025626, 0.932683, 1, 1, 1, 0.6, 1, 0.000307543, -0.000976123, 9.49127e-06, -0.129382, -0.322063, 0.0399994, 0.936982, 1, 1, 1, 0.666667, 1, 0.000358335, -0.000964667, 1.38658e-05, -0.130579, -0.303479, 0.0510136, 0.942469, 1, 1, 1, 0.733333, 1, 0.000403631, -0.000851599, 2.97941e-05, -0.128091, -0.2845, 0.0556302, 0.94845, 1, 1, 1, 0.8, 1, 0.000419867, -0.000682732, 5.10645e-05, -0.123015, -0.265613, 0.0554972, 0.954587, 1, 1, 1, 0.866667, 1, 0.000414333, -0.000517207, 6.57246e-05, -0.110567, -0.258376, 0.0528915, 0.958238, 1, 1, 1, 0.933333, 1, 0.000381854, -0.000415121, 6.6586e-05, -0.0922654, -0.258614, 0.0523438, 0.960138, 1, 1, 1, 1, 1, 0.000316261, -0.00041129, 7.64486e-05, -0.0704068, -0.250461, 0.0543902, 0.96403, 1, 1, 1, 1.06667, 1, 0.000259401, -0.000501637, 4.65752e-05, -0.0538195, -0.227957, 0.036168, 0.97151, 1, 1, 1, 1.13333, 1, 0.000208452, -0.000663904, 3.23892e-05, -0.0433795, -0.216895, 0.0144429, 0.975124, 1, 1, 1, 1.2, 1, 0.00016493, -0.000842841, 2.39739e-05, -0.0515646, -0.24191, 0.00402911, 0.968919, 1, 1, 1, 1.26667, 1, 0.000141024, -0.000968114, 1.92314e-05, -0.06343, -0.258804, -0.0127133, 0.963761, 1, 1, 1, 1.33333, 1, 0.000100253, -0.00098143, 3.92084e-05, -0.0754906, -0.270262, -0.0071786, 0.959796, 1, 1, 1, 1.4, 1, 5.49831e-05, -0.000936943, 7.10761e-05, -0.0868471, -0.279046, -0.0041345, 0.956334, 1, 1, 1 )
