[gd_resource type="Animation" format=2]

[resource]
resource_name = "Walk Left-loop"
length = 1.03333
loop = true
tracks/0/type = "transform"
tracks/0/path = NodePath("Armature/Skeleton:Head")
tracks/0/interp = 1
tracks/0/loop_wrap = true
tracks/0/imported = true
tracks/0/enabled = true
tracks/0/keys = PoolRealArray( 0, 1, 0, 0, 0, -0.0919266, 0.189268, -0.100703, 0.972412, 1, 1, 1, 0.0666667, 1, 0, 0, 0, -0.0913454, 0.186259, -0.101149, 0.973002, 1, 1, 1, 0.133333, 1, 0, 0, 0, -0.0904622, 0.181759, -0.101824, 0.973864, 1, 1, 1, 0.2, 1, 0, 0, 0, -0.0899616, 0.179123, -0.102195, 0.974361, 1, 1, 1, 0.266667, 1, 0, 0, 0, -0.0897958, 0.178158, -0.102299, 0.974542, 1, 1, 1, 0.333333, 1, 0, 0, 0, -0.0898749, 0.17867, -0.102242, 0.974446, 1, 1, 1, 0.4, 1, 0, 0, 0, -0.0904261, 0.18153, -0.10185, 0.973908, 1, 1, 1, 0.466667, 1, 0, 0, 0, -0.0913203, 0.186129, -0.101168, 0.973027, 1, 1, 1, 0.733333, 1, 0, 0, 0, -0.0963094, 0.210762, -0.09686, 0.967947, 1, 1, 1, 0.8, 1, 0, 0, 0, -0.0968815, 0.213624, -0.0963968, 0.967309, 1, 1, 1, 0.866667, 1, 0, 0, 0, -0.0964261, 0.211369, -0.0967622, 0.967813, 1, 1, 1, 1.03333, 1, 0, 0, 0, -0.0919569, 0.189271, -0.100641, 0.972415, 1, 1, 1 )
tracks/1/type = "transform"
tracks/1/path = NodePath("Armature/Skeleton:Neck")
tracks/1/interp = 1
tracks/1/loop_wrap = true
tracks/1/imported = true
tracks/1/enabled = true
tracks/1/keys = PoolRealArray( 0, 1, 5.29396e-23, -1.16415e-10, 1.09139e-11, -0.0692572, 0.00875985, 0.0186416, 0.997386, 1, 1, 1, 0.0666667, 1, 5.29396e-23, -1.16415e-10, 1.09139e-11, -0.0692281, 0.00721209, 0.0182857, 0.997407, 1, 1, 1, 0.133333, 1, 5.29396e-23, -1.16415e-10, 1.09139e-11, -0.0691859, 0.00489869, 0.0177531, 0.997434, 1, 1, 1, 0.2, 1, 5.29396e-23, -1.16415e-10, 1.09139e-11, -0.0691621, 0.00354165, 0.0174701, 0.997446, 1, 1, 1, 0.266667, 1, 5.29396e-23, -1.16415e-10, 1.09139e-11, -0.0691535, 0.00304628, 0.0173951, 0.99745, 1, 1, 1, 0.333333, 1, 5.29396e-23, -1.16415e-10, 1.09139e-11, -0.0691579, 0.00330852, 0.0174279, 0.997448, 1, 1, 1, 0.4, 1, 5.29396e-23, -1.16415e-10, 1.09139e-11, -0.0691839, 0.00477814, 0.0177377, 0.997435, 1, 1, 1, 0.466667, 1, 5.29396e-23, -1.16415e-10, 1.09139e-11, -0.069227, 0.00714175, 0.0182855, 0.997408, 1, 1, 1, 0.733333, 1, 5.29396e-23, -1.16415e-10, 1.09139e-11, -0.069482, 0.0198426, 0.0211902, 0.997161, 1, 1, 1, 0.8, 1, 5.29396e-23, -1.16415e-10, 1.09139e-11, -0.0695143, 0.0213216, 0.0215279, 0.997121, 1, 1, 1, 0.866667, 1, 5.29396e-23, -1.16415e-10, 1.09139e-11, -0.0694889, 0.0201538, 0.0212637, 0.997152, 1, 1, 1, 1.03333, 1, 5.29396e-23, -1.16415e-10, 1.09139e-11, -0.0692572, 0.00875639, 0.0186558, 0.997386, 1, 1, 1 )
tracks/2/type = "transform"
tracks/2/path = NodePath("Armature/Skeleton:LeftHandThumb3")
tracks/2/interp = 1
tracks/2/loop_wrap = true
tracks/2/imported = true
tracks/2/enabled = true
tracks/2/keys = PoolRealArray( 0, 1, -2.03727e-10, 2.91038e-11, -2.63171e-10, -0.11102, -0.048669, 0.227364, 0.966236, 1, 1, 1, 1.03333, 1, -2.03727e-10, 2.91038e-11, -2.63171e-10, -0.11102, -0.048669, 0.227364, 0.966236, 1, 1, 1 )
tracks/3/type = "transform"
tracks/3/path = NodePath("Armature/Skeleton:LeftHandThumb2")
tracks/3/interp = 1
tracks/3/loop_wrap = true
tracks/3/imported = true
tracks/3/enabled = true
tracks/3/keys = PoolRealArray( 0, 1, -3.91083e-11, 1.45519e-10, -1.75649e-09, -0.0132905, 0.000458145, -0.122105, 0.992428, 1, 1, 1, 1.03333, 1, -3.91083e-11, 1.45519e-10, -1.75649e-09, -0.0132905, 0.000458145, -0.122105, 0.992428, 1, 1, 1 )
tracks/4/type = "transform"
tracks/4/path = NodePath("Armature/Skeleton:LeftHandThumb1")
tracks/4/interp = 1
tracks/4/loop_wrap = true
tracks/4/imported = true
tracks/4/enabled = true
tracks/4/keys = PoolRealArray( 0, 1, -1.45519e-11, -1.74623e-10, -5.52973e-10, 0.0149512, -0.0406687, -0.0737735, 0.996333, 1, 1, 1, 1.03333, 1, -1.45519e-11, -1.74623e-10, -5.52973e-10, 0.0149512, -0.0406687, -0.0737735, 0.996333, 1, 1, 1 )
tracks/5/type = "transform"
tracks/5/path = NodePath("Armature/Skeleton:LeftHandIndex3")
tracks/5/interp = 1
tracks/5/loop_wrap = true
tracks/5/imported = true
tracks/5/enabled = true
tracks/5/keys = PoolRealArray( 0, 1, 5.45697e-11, -9.31323e-10, 4.99917e-10, 0.243585, 0.00526671, -0.0447838, 0.968831, 1, 1, 1, 1.03333, 1, 5.45697e-11, -9.31323e-10, 4.99917e-10, 0.243585, 0.00526671, -0.0447838, 0.968831, 1, 1, 1 )
tracks/6/type = "transform"
tracks/6/path = NodePath("Armature/Skeleton:LeftHandIndex2")
tracks/6/interp = 1
tracks/6/loop_wrap = true
tracks/6/imported = true
tracks/6/enabled = true
tracks/6/keys = PoolRealArray( 0, 1, -9.09495e-13, 1.25146e-09, -2.18933e-09, 0.242743, 0.00681212, -0.0447966, 0.969032, 1, 1, 1, 1.03333, 1, -9.09495e-13, 1.25146e-09, -2.18933e-09, 0.242743, 0.00681212, -0.0447966, 0.969032, 1, 1, 1 )
tracks/7/type = "transform"
tracks/7/path = NodePath("Armature/Skeleton:LeftHandIndex1")
tracks/7/interp = 1
tracks/7/loop_wrap = true
tracks/7/imported = true
tracks/7/enabled = true
tracks/7/keys = PoolRealArray( 0, 1, 5.82077e-11, 4.65661e-10, 4.62023e-10, 0.182951, 0.0760109, -0.0187075, 0.980001, 1, 1, 1, 1.03333, 1, 5.82077e-11, 4.65661e-10, 4.62023e-10, 0.182951, 0.0760109, -0.0187075, 0.980001, 1, 1, 1 )
tracks/8/type = "transform"
tracks/8/path = NodePath("Armature/Skeleton:LeftHandMiddle3")
tracks/8/interp = 1
tracks/8/loop_wrap = true
tracks/8/imported = true
tracks/8/enabled = true
tracks/8/keys = PoolRealArray( 0, 1, 8.18545e-11, 1.07684e-09, -6.15692e-10, 0.367751, 0.0153607, -0.067853, 0.927318, 1, 1, 1, 1.03333, 1, 8.18545e-11, 1.07684e-09, -6.15692e-10, 0.367751, 0.0153607, -0.067853, 0.927318, 1, 1, 1 )
tracks/9/type = "transform"
tracks/9/path = NodePath("Armature/Skeleton:LeftHandMiddle2")
tracks/9/interp = 1
tracks/9/loop_wrap = true
tracks/9/imported = true
tracks/9/enabled = true
tracks/9/keys = PoolRealArray( 0, 1, 2.30102e-10, -6.1118e-10, -2.11891e-10, 0.384019, 0.00168513, -0.0690501, 0.920738, 1, 1, 1, 1.03333, 1, 2.30102e-10, -6.1118e-10, -2.11891e-10, 0.384019, 0.00168513, -0.0690501, 0.920738, 1, 1, 1 )
tracks/10/type = "transform"
tracks/10/path = NodePath("Armature/Skeleton:LeftHandMiddle1")
tracks/10/interp = 1
tracks/10/loop_wrap = true
tracks/10/imported = true
tracks/10/enabled = true
tracks/10/keys = PoolRealArray( 0, 1, 9.82254e-11, 2.32831e-10, 8.0945e-10, 0.182652, 0.0817867, -0.0146764, 0.97966, 1, 1, 1, 1.03333, 1, 9.82254e-11, 2.32831e-10, 8.0945e-10, 0.182652, 0.0817867, -0.0146764, 0.97966, 1, 1, 1 )
tracks/11/type = "transform"
tracks/11/path = NodePath("Armature/Skeleton:LeftHandRing3")
tracks/11/interp = 1
tracks/11/loop_wrap = true
tracks/11/imported = true
tracks/11/enabled = true
tracks/11/keys = PoolRealArray( 0, 1, 4.72937e-11, 0, -6.50646e-10, 0.275188, 0.0338354, -0.11677, 0.953673, 1, 1, 1, 1.03333, 1, 4.72937e-11, 0, -6.50646e-10, 0.275188, 0.0338354, -0.11677, 0.953673, 1, 1, 1 )
tracks/12/type = "transform"
tracks/12/path = NodePath("Armature/Skeleton:LeftHandRing2")
tracks/12/interp = 1
tracks/12/loop_wrap = true
tracks/12/imported = true
tracks/12/enabled = true
tracks/12/keys = PoolRealArray( 0, 1, 1.28239e-10, 1.74623e-10, -7.46248e-10, 0.557819, 0.00973769, -0.10046, 0.823803, 1, 1, 1, 1.03333, 1, 1.28239e-10, 1.74623e-10, -7.46248e-10, 0.557819, 0.00973769, -0.10046, 0.823803, 1, 1, 1 )
tracks/13/type = "transform"
tracks/13/path = NodePath("Armature/Skeleton:LeftHandRing1")
tracks/13/interp = 1
tracks/13/loop_wrap = true
tracks/13/imported = true
tracks/13/enabled = true
tracks/13/keys = PoolRealArray( 0, 1, -2.61934e-10, -8.14907e-10, -3.23325e-10, 0.155692, 0.00199363, -0.0141834, 0.987702, 1, 1, 1, 1.03333, 1, -2.61934e-10, -8.14907e-10, -3.23325e-10, 0.155692, 0.00199363, -0.0141834, 0.987702, 1, 1, 1 )
tracks/14/type = "transform"
tracks/14/path = NodePath("Armature/Skeleton:LeftHandPinky3")
tracks/14/interp = 1
tracks/14/loop_wrap = true
tracks/14/imported = true
tracks/14/enabled = true
tracks/14/keys = PoolRealArray( 0, 1, -1.93722e-10, -1.01863e-09, -5.55102e-10, 0.266768, 0.00399662, -0.0689925, 0.96128, 1, 1, 1, 1.03333, 1, -1.93722e-10, -1.01863e-09, -5.55102e-10, 0.266768, 0.00399662, -0.0689925, 0.96128, 1, 1, 1 )
tracks/15/type = "transform"
tracks/15/path = NodePath("Armature/Skeleton:LeftHandPinky2")
tracks/15/interp = 1
tracks/15/loop_wrap = true
tracks/15/imported = true
tracks/15/enabled = true
tracks/15/keys = PoolRealArray( 0, 1, 1.19144e-10, 4.94765e-10, -1.39163e-09, 0.421326, 0.00851165, -0.109459, 0.900239, 1, 1, 1, 1.03333, 1, 1.19144e-10, 4.94765e-10, -1.39163e-09, 0.421326, 0.00851165, -0.109459, 0.900239, 1, 1, 1 )
tracks/16/type = "transform"
tracks/16/path = NodePath("Armature/Skeleton:LeftHandPinky1")
tracks/16/interp = 1
tracks/16/loop_wrap = true
tracks/16/imported = true
tracks/16/enabled = true
tracks/16/keys = PoolRealArray( 0, 1, 2.32831e-10, 4.65661e-10, -5.31145e-10, 0.0533937, -0.0713474, -0.0186991, 0.995846, 1, 1, 1, 1.03333, 1, 2.32831e-10, 4.65661e-10, -5.31145e-10, 0.0533937, -0.0713474, -0.0186991, 0.995846, 1, 1, 1 )
tracks/17/type = "transform"
tracks/17/path = NodePath("Armature/Skeleton:LeftHand")
tracks/17/interp = 1
tracks/17/loop_wrap = true
tracks/17/imported = true
tracks/17/enabled = true
tracks/17/keys = PoolRealArray( 0, 1, 1.27475e-08, -3.14321e-08, -8.25821e-10, 0.0131816, -0.284045, 0.0200095, 0.958511, 1, 1, 1, 0.0666667, 1, 1.27475e-08, -3.14321e-08, -8.25821e-10, 0.0073142, -0.293869, 0.0159714, 0.955684, 1, 1, 1, 0.133333, 1, 1.27475e-08, -3.14321e-08, -8.25821e-10, -0.0116716, -0.285053, 0.0105929, 0.958382, 1, 1, 1, 0.2, 1, 1.27475e-08, -3.14321e-08, -8.25821e-10, -0.0152408, -0.272561, 0.00448036, 0.962007, 1, 1, 1, 0.266667, 1, 1.27475e-08, -3.14321e-08, -8.25821e-10, -0.0177495, -0.277362, 0.00811997, 0.960567, 1, 1, 1, 0.333333, 1, 1.27475e-08, -3.14321e-08, -8.25821e-10, -0.0162568, -0.280717, 0.0228695, 0.95938, 1, 1, 1, 0.4, 1, 1.27475e-08, -3.14321e-08, -8.25821e-10, 0.00262866, -0.2896, 0.0198232, 0.956939, 1, 1, 1, 0.466667, 1, 1.27475e-08, -3.14321e-08, -8.25821e-10, -0.00313764, -0.286874, 0.0242507, 0.957656, 1, 1, 1, 0.533333, 1, 1.27475e-08, -3.14321e-08, -8.25821e-10, -0.00997562, -0.273432, 0.0324898, 0.961291, 1, 1, 1, 0.6, 1, 1.27475e-08, -3.14321e-08, -8.25821e-10, -0.0200551, -0.261268, 0.0453613, 0.963991, 1, 1, 1, 0.666667, 1, 1.27475e-08, -3.14321e-08, -8.25821e-10, -0.0193817, -0.25561, 0.0562935, 0.964945, 1, 1, 1, 0.733333, 1, 1.27475e-08, -3.14321e-08, -8.25821e-10, -0.00464483, -0.275644, 0.0666264, 0.958937, 1, 1, 1, 0.8, 1, 1.27475e-08, -3.14321e-08, -8.25821e-10, 0.00850836, -0.295513, 0.0668364, 0.95296, 1, 1, 1, 0.866667, 1, 1.27475e-08, -3.14321e-08, -8.25821e-10, 0.0138501, -0.310344, 0.0710051, 0.947868, 1, 1, 1, 0.933333, 1, 1.27475e-08, -3.14321e-08, -8.25821e-10, 0.0119894, -0.301578, 0.0566116, 0.951684, 1, 1, 1, 1, 1, 1.27475e-08, -3.14321e-08, -8.25821e-10, 0.0180556, -0.312763, 0.0276294, 0.949258, 1, 1, 1, 1.03333, 1, 1.27475e-08, -3.14321e-08, -8.25821e-10, 0.0130915, -0.284095, 0.0200227, 0.958498, 1, 1, 1 )
tracks/18/type = "transform"
tracks/18/path = NodePath("Armature/Skeleton:LeftForeArm")
tracks/18/interp = 1
tracks/18/loop_wrap = true
tracks/18/imported = true
tracks/18/enabled = true
tracks/18/keys = PoolRealArray( 0, 1, 4.91429e-09, 9.31323e-10, -3.92121e-08, -0.562365, 0.601553, -0.342203, -0.452522, 1, 1, 1, 0.0666667, 1, 4.91429e-09, 9.31323e-10, -3.92121e-08, -0.556953, 0.5939, -0.352576, -0.461277, 1, 1, 1, 0.133333, 1, 4.91429e-09, 9.31323e-10, -3.92121e-08, -0.561583, 0.591853, -0.353577, -0.457512, 1, 1, 1, 0.2, 1, 4.91429e-09, 9.31323e-10, -3.92121e-08, -0.566673, 0.59485, -0.34826, -0.451388, 1, 1, 1, 0.266667, 1, 4.91429e-09, 9.31323e-10, -3.92121e-08, -0.572094, 0.591604, -0.349719, -0.447671, 1, 1, 1, 0.333333, 1, 4.91429e-09, 9.31323e-10, -3.92121e-08, 0.586389, -0.583959, 0.352923, 0.43656, 1, 1, 1, 0.4, 1, 4.91429e-09, 9.31323e-10, -3.92121e-08, -0.572875, 0.58578, -0.355477, -0.449791, 1, 1, 1, 0.466667, 1, 4.91429e-09, 9.31323e-10, -3.92121e-08, -0.577117, 0.582681, -0.357784, -0.446554, 1, 1, 1, 0.533333, 1, 4.91429e-09, 9.31323e-10, -3.92121e-08, -0.585246, 0.586865, -0.350679, -0.436006, 1, 1, 1, 0.6, 1, 4.91429e-09, 9.31323e-10, -3.92121e-08, 0.60056, -0.584895, 0.346921, 0.420562, 1, 1, 1, 0.666667, 1, 4.91429e-09, 9.31323e-10, -3.92121e-08, 0.615066, -0.580116, 0.345521, 0.407155, 1, 1, 1, 0.733333, 1, 4.91429e-09, 9.31323e-10, -3.92121e-08, 0.611417, -0.571473, 0.357553, 0.414419, 1, 1, 1, 0.8, 1, 4.91429e-09, 9.31323e-10, -3.92121e-08, 0.592958, -0.572342, 0.364213, 0.433791, 1, 1, 1, 0.866667, 1, 4.91429e-09, 9.31323e-10, -3.92121e-08, 0.590628, -0.56626, 0.371893, 0.43841, 1, 1, 1, 0.933333, 1, 4.91429e-09, 9.31323e-10, -3.92121e-08, 0.585104, -0.57596, 0.363239, 0.440433, 1, 1, 1, 1, 1, 4.91429e-09, 9.31323e-10, -3.92121e-08, -0.556838, 0.583766, -0.363907, -0.465532, 1, 1, 1, 1.03333, 1, 4.91429e-09, 9.31323e-10, -3.92121e-08, -0.562739, 0.601423, -0.342216, -0.45222, 1, 1, 1 )
tracks/19/type = "transform"
tracks/19/path = NodePath("Armature/Skeleton:LeftArm")
tracks/19/interp = 1
tracks/19/loop_wrap = true
tracks/19/imported = true
tracks/19/enabled = true
tracks/19/keys = PoolRealArray( 0, 1, -2.3465e-09, 1.44355e-08, 4.80213e-09, 0.36832, -0.416916, 0.228893, 0.79883, 1, 1, 1, 0.0666667, 1, -2.3465e-09, 1.44355e-08, 4.80213e-09, 0.367064, -0.414807, 0.22819, 0.800705, 1, 1, 1, 0.133333, 1, -2.3465e-09, 1.44355e-08, 4.80213e-09, 0.361042, -0.416494, 0.220723, 0.804651, 1, 1, 1, 0.2, 1, -2.3465e-09, 1.44355e-08, 4.80213e-09, 0.35931, -0.426649, 0.205872, 0.804042, 1, 1, 1, 0.266667, 1, -2.3465e-09, 1.44355e-08, 4.80213e-09, 0.353491, -0.441699, 0.197791, 0.800515, 1, 1, 1, 0.333333, 1, -2.3465e-09, 1.44355e-08, 4.80213e-09, 0.344457, -0.455674, 0.172079, 0.802558, 1, 1, 1, 0.4, 1, -2.3465e-09, 1.44355e-08, 4.80213e-09, 0.356247, -0.447916, 0.190101, 0.797698, 1, 1, 1, 0.466667, 1, -2.3465e-09, 1.44355e-08, 4.80213e-09, 0.365675, -0.441583, 0.193231, 0.796209, 1, 1, 1, 0.533333, 1, -2.3465e-09, 1.44355e-08, 4.80213e-09, 0.365481, -0.425134, 0.206211, 0.801974, 1, 1, 1, 0.6, 1, -2.3465e-09, 1.44355e-08, 4.80213e-09, 0.366911, -0.409258, 0.219294, 0.806098, 1, 1, 1, 0.666667, 1, -2.3465e-09, 1.44355e-08, 4.80213e-09, 0.374208, -0.399334, 0.219615, 0.807632, 1, 1, 1, 0.733333, 1, -2.3465e-09, 1.44355e-08, 4.80213e-09, 0.385244, -0.395932, 0.221105, 0.803703, 1, 1, 1, 0.8, 1, -2.3465e-09, 1.44355e-08, 4.80213e-09, 0.396702, -0.406465, 0.228466, 0.790707, 1, 1, 1, 0.866667, 1, -2.3465e-09, 1.44355e-08, 4.80213e-09, 0.395819, -0.410602, 0.219792, 0.79147, 1, 1, 1, 0.933333, 1, -2.3465e-09, 1.44355e-08, 4.80213e-09, 0.386663, -0.416936, 0.214795, 0.794053, 1, 1, 1, 1, 1, -2.3465e-09, 1.44355e-08, 4.80213e-09, 0.375998, -0.417096, 0.224358, 0.796442, 1, 1, 1, 1.03333, 1, -2.3465e-09, 1.44355e-08, 4.80213e-09, 0.368236, -0.416898, 0.228352, 0.799033, 1, 1, 1 )
tracks/20/type = "transform"
tracks/20/path = NodePath("Armature/Skeleton:LeftShoulder")
tracks/20/interp = 1
tracks/20/loop_wrap = true
tracks/20/imported = true
tracks/20/enabled = true
tracks/20/keys = PoolRealArray( 0, 1, -6.50289e-11, -2.61934e-10, -5.82077e-10, 0.0447462, 0.0229432, 0.289987, 0.955709, 1, 1, 1, 0.0666667, 1, -6.50289e-11, -2.61934e-10, -5.82077e-10, 0.0516282, 0.0175099, 0.29752, 0.953158, 1, 1, 1, 0.133333, 1, -6.50289e-11, -2.61934e-10, -5.82077e-10, 0.0637268, 0.00617279, 0.316421, 0.946456, 1, 1, 1, 0.2, 1, -6.50289e-11, -2.61934e-10, -5.82077e-10, 0.0554844, 0.00664779, 0.336145, 0.940151, 1, 1, 1, 0.266667, 1, -6.50289e-11, -2.61934e-10, -5.82077e-10, 0.0333038, 0.0177061, 0.350288, 0.935882, 1, 1, 1, 0.333333, 1, -6.50289e-11, -2.61934e-10, -5.82077e-10, 0.00893635, 0.0341723, 0.368656, 0.928894, 1, 1, 1, 0.4, 1, -6.50289e-11, -2.61934e-10, -5.82077e-10, 0.00655434, 0.0399824, 0.337936, 0.940297, 1, 1, 1, 0.466667, 1, -6.50289e-11, -2.61934e-10, -5.82077e-10, 0.0130256, 0.0368961, 0.313182, 0.948887, 1, 1, 1, 0.533333, 1, -6.50289e-11, -2.61934e-10, -5.82077e-10, 0.0339384, 0.0301412, 0.283601, 0.957868, 1, 1, 1, 0.6, 1, -6.50289e-11, -2.61934e-10, -5.82077e-10, 0.0510827, 0.0268563, 0.253042, 0.965732, 1, 1, 1, 0.666667, 1, -6.50289e-11, -2.61934e-10, -5.82077e-10, 0.0542803, 0.0305518, 0.225877, 0.972162, 1, 1, 1, 0.733333, 1, -6.50289e-11, -2.61934e-10, -5.82077e-10, 0.0417762, 0.03988, 0.20606, 0.976833, 1, 1, 1, 0.8, 1, -6.50289e-11, -2.61934e-10, -5.82077e-10, 0.0251225, 0.0485421, 0.197619, 0.978754, 1, 1, 1, 0.866667, 1, -6.50289e-11, -2.61934e-10, -5.82077e-10, 0.0170767, 0.0506136, 0.20739, 0.976799, 1, 1, 1, 0.933333, 1, -6.50289e-11, -2.61934e-10, -5.82077e-10, 0.0245297, 0.0426687, 0.238273, 0.96995, 1, 1, 1, 1.03333, 1, -6.50289e-11, -2.61934e-10, -5.82077e-10, 0.0447462, 0.0229431, 0.289986, 0.955709, 1, 1, 1 )
tracks/21/type = "transform"
tracks/21/path = NodePath("Armature/Skeleton:RightHandThumb3")
tracks/21/interp = 1
tracks/21/loop_wrap = true
tracks/21/imported = true
tracks/21/enabled = true
tracks/21/keys = PoolRealArray( 0, 1, -2.18279e-11, 1.16415e-10, -1.08316e-09, -0.171772, -0.0132754, 0.201668, 0.964183, 1, 1, 1, 1.03333, 1, -2.18279e-11, 1.16415e-10, -1.08316e-09, -0.171772, -0.0132754, 0.201668, 0.964183, 1, 1, 1 )
tracks/22/type = "transform"
tracks/22/path = NodePath("Armature/Skeleton:RightHandThumb2")
tracks/22/interp = 1
tracks/22/loop_wrap = true
tracks/22/imported = true
tracks/22/enabled = true
tracks/22/keys = PoolRealArray( 0, 1, 2.92857e-10, -7.567e-10, -3.50298e-11, -0.0312036, 0.012475, 0.189963, 0.981216, 1, 1, 1, 1.03333, 1, 2.92857e-10, -7.567e-10, -3.50298e-11, -0.0312036, 0.012475, 0.189963, 0.981216, 1, 1, 1 )
tracks/23/type = "transform"
tracks/23/path = NodePath("Armature/Skeleton:RightHandThumb1")
tracks/23/interp = 1
tracks/23/loop_wrap = true
tracks/23/imported = true
tracks/23/enabled = true
tracks/23/keys = PoolRealArray( 0, 1, -2.32831e-10, 6.98492e-10, 6.1118e-10, -0.0187527, -0.102017, 0.0886554, 0.990647, 1, 1, 1, 1.03333, 1, -2.32831e-10, 6.98492e-10, 6.1118e-10, -0.0187527, -0.102017, 0.0886554, 0.990647, 1, 1, 1 )
tracks/24/type = "transform"
tracks/24/path = NodePath("Armature/Skeleton:RightHandIndex3")
tracks/24/interp = 1
tracks/24/loop_wrap = true
tracks/24/imported = true
tracks/24/enabled = true
tracks/24/keys = PoolRealArray( 0, 1, -2.00089e-11, 4.07454e-10, -1.34622e-09, 0.285709, -0.0120047, 0.0446544, 0.9572, 1, 1, 1, 1.03333, 1, -2.00089e-11, 4.07454e-10, -1.34622e-09, 0.285709, -0.0120047, 0.0446544, 0.9572, 1, 1, 1 )
tracks/25/type = "transform"
tracks/25/path = NodePath("Armature/Skeleton:RightHandIndex2")
tracks/25/interp = 1
tracks/25/loop_wrap = true
tracks/25/imported = true
tracks/25/enabled = true
tracks/25/keys = PoolRealArray( 0, 1, -1.30058e-10, -8.44011e-10, 2.04921e-10, 0.0996917, -0.00148444, 0.0152123, 0.994901, 1, 1, 1, 1.03333, 1, -1.30058e-10, -8.44011e-10, 2.04921e-10, 0.0996917, -0.00148444, 0.0152123, 0.994901, 1, 1, 1 )
tracks/26/type = "transform"
tracks/26/path = NodePath("Armature/Skeleton:RightHandIndex1")
tracks/26/interp = 1
tracks/26/loop_wrap = true
tracks/26/imported = true
tracks/26/enabled = true
tracks/26/keys = PoolRealArray( 0, 1, -3.20142e-10, 8.14907e-10, -1.65528e-10, 0.0410043, 0.00108418, 0.0541752, 0.997689, 1, 1, 1, 1.03333, 1, -3.20142e-10, 8.14907e-10, -1.65528e-10, 0.0410043, 0.00108418, 0.0541752, 0.997689, 1, 1, 1 )
tracks/27/type = "transform"
tracks/27/path = NodePath("Armature/Skeleton:RightHandMiddle3")
tracks/27/interp = 1
tracks/27/loop_wrap = true
tracks/27/imported = true
tracks/27/enabled = true
tracks/27/keys = PoolRealArray( 0, 1, -2.36469e-11, -6.69388e-10, 4.1949e-10, 0.575481, -0.0303609, 0.0867869, 0.81263, 1, 1, 1, 1.03333, 1, -2.36469e-11, -6.69388e-10, 4.1949e-10, 0.575481, -0.0303609, 0.0867869, 0.81263, 1, 1, 1 )
tracks/28/type = "transform"
tracks/28/path = NodePath("Armature/Skeleton:RightHandMiddle2")
tracks/28/interp = 1
tracks/28/loop_wrap = true
tracks/28/imported = true
tracks/28/enabled = true
tracks/28/keys = PoolRealArray( 0, 1, -3.89946e-11, -6.1118e-10, -1.48161e-09, 0.775096, -0.00335603, 0.111659, 0.62189, 1, 1, 1, 1.03333, 1, -3.89946e-11, -6.1118e-10, -1.48161e-09, 0.775096, -0.00335603, 0.111659, 0.62189, 1, 1, 1 )
tracks/29/type = "transform"
tracks/29/path = NodePath("Armature/Skeleton:RightHandMiddle1")
tracks/29/interp = 1
tracks/29/loop_wrap = true
tracks/29/imported = true
tracks/29/enabled = true
tracks/29/keys = PoolRealArray( 0, 1, 2.07365e-10, -1.28057e-09, 2.49202e-10, 0.000891173, -0.0316058, 0.105686, 0.993897, 1, 1, 1, 1.03333, 1, 2.07365e-10, -1.28057e-09, 2.49202e-10, 0.000891173, -0.0316058, 0.105686, 0.993897, 1, 1, 1 )
tracks/30/type = "transform"
tracks/30/path = NodePath("Armature/Skeleton:RightHandRing3")
tracks/30/interp = 1
tracks/30/loop_wrap = true
tracks/30/imported = true
tracks/30/enabled = true
tracks/30/keys = PoolRealArray( 0, 1, 2.81943e-11, -1.45519e-10, 1.20534e-09, 0.626692, -0.0207172, 0.100931, 0.772425, 1, 1, 1, 1.03333, 1, 2.81943e-11, -1.45519e-10, 1.20534e-09, 0.626692, -0.0207172, 0.100931, 0.772425, 1, 1, 1 )
tracks/31/type = "transform"
tracks/31/path = NodePath("Armature/Skeleton:RightHandRing2")
tracks/31/interp = 1
tracks/31/loop_wrap = true
tracks/31/imported = true
tracks/31/enabled = true
tracks/31/keys = PoolRealArray( 0, 1, -1.18234e-10, -1.28057e-09, 2.621e-09, 0.828768, -0.018741, 0.132089, 0.543457, 1, 1, 1, 1.03333, 1, -1.18234e-10, -1.28057e-09, 2.621e-09, 0.828768, -0.018741, 0.132089, 0.543457, 1, 1, 1 )
tracks/32/type = "transform"
tracks/32/path = NodePath("Armature/Skeleton:RightHandRing1")
tracks/32/interp = 1
tracks/32/loop_wrap = true
tracks/32/imported = true
tracks/32/enabled = true
tracks/32/keys = PoolRealArray( 0, 1, 1.16415e-10, 1.16415e-09, 7.34872e-10, 0.0765875, 0.117787, 0.107649, 0.984211, 1, 1, 1, 1.03333, 1, 1.16415e-10, 1.16415e-09, 7.34872e-10, 0.0765875, 0.117787, 0.107649, 0.984211, 1, 1, 1 )
tracks/33/type = "transform"
tracks/33/path = NodePath("Armature/Skeleton:RightHandPinky3")
tracks/33/interp = 1
tracks/33/loop_wrap = true
tracks/33/imported = true
tracks/33/enabled = true
tracks/33/keys = PoolRealArray( 0, 1, -4.09727e-10, 4.94765e-10, 1.30511e-09, 0.609685, -0.00692832, 0.141587, 0.779865, 1, 1, 1, 1.03333, 1, -4.09727e-10, 4.94765e-10, 1.30511e-09, 0.609685, -0.00692832, 0.141587, 0.779865, 1, 1, 1 )
tracks/34/type = "transform"
tracks/34/path = NodePath("Armature/Skeleton:RightHandPinky2")
tracks/34/interp = 1
tracks/34/loop_wrap = true
tracks/34/imported = true
tracks/34/enabled = true
tracks/34/keys = PoolRealArray( 0, 1, -7.7307e-11, 1.16415e-10, 1.01147e-09, 0.712567, -0.0191293, 0.167121, 0.681141, 1, 1, 1, 1.03333, 1, -7.7307e-11, 1.16415e-10, 1.01147e-09, 0.712567, -0.0191293, 0.167121, 0.681141, 1, 1, 1 )
tracks/35/type = "transform"
tracks/35/path = NodePath("Armature/Skeleton:RightHandPinky1")
tracks/35/interp = 1
tracks/35/loop_wrap = true
tracks/35/imported = true
tracks/35/enabled = true
tracks/35/keys = PoolRealArray( 0, 1, 2.91038e-10, -6.98492e-10, 6.98492e-10, 0.0244962, 0.156039, 0.0913089, 0.983216, 1, 1, 1, 1.03333, 1, 2.91038e-10, -6.98492e-10, 6.98492e-10, 0.0244962, 0.156039, 0.0913089, 0.983216, 1, 1, 1 )
tracks/36/type = "transform"
tracks/36/path = NodePath("Armature/Skeleton:RightHand")
tracks/36/interp = 1
tracks/36/loop_wrap = true
tracks/36/imported = true
tracks/36/enabled = true
tracks/36/keys = PoolRealArray( 0, 1, 7.30506e-09, 1.21072e-08, -7.06023e-08, -0.0439764, 0.00141152, 0.00107053, 0.999031, 1, 1, 1, 0.0666667, 1, 7.30506e-09, 1.21072e-08, -7.06023e-08, -0.0491486, -0.00460585, -0.00532808, 0.998767, 1, 1, 1, 0.133333, 1, 7.30506e-09, 1.21072e-08, -7.06023e-08, -0.0569286, -0.0178574, -0.0109135, 0.998159, 1, 1, 1, 0.2, 1, 7.30506e-09, 1.21072e-08, -7.06023e-08, -0.0467154, 0.00579168, -0.0130579, 0.998806, 1, 1, 1, 0.266667, 1, 7.30506e-09, 1.21072e-08, -7.06023e-08, -0.0390772, -0.00934605, -0.00406749, 0.999184, 1, 1, 1, 0.333333, 1, 7.30506e-09, 1.21072e-08, -7.06023e-08, -0.0252675, -0.020696, 0.00279667, 0.999463, 1, 1, 1, 0.4, 1, 7.30506e-09, 1.21072e-08, -7.06023e-08, -0.0181512, -0.0160426, -0.010102, 0.999656, 1, 1, 1, 0.466667, 1, 7.30506e-09, 1.21072e-08, -7.06023e-08, -0.0239625, -0.000127059, -0.014266, 0.999611, 1, 1, 1, 0.533333, 1, 7.30506e-09, 1.21072e-08, -7.06023e-08, -0.0296531, 0.0155294, -0.0136252, 0.999347, 1, 1, 1, 0.6, 1, 7.30506e-09, 1.21072e-08, -7.06023e-08, -0.0351128, 0.0284984, -0.000266577, 0.998977, 1, 1, 1, 0.666667, 1, 7.30506e-09, 1.21072e-08, -7.06023e-08, -0.0300757, 0.0268594, 0.0172409, 0.999038, 1, 1, 1, 0.733333, 1, 7.30506e-09, 1.21072e-08, -7.06023e-08, -0.00961507, 0.0121831, 0.0360329, 0.99923, 1, 1, 1, 0.8, 1, 7.30506e-09, 1.21072e-08, -7.06023e-08, 0.00649964, -0.011723, 0.0466173, 0.998823, 1, 1, 1, 0.866667, 1, 7.30506e-09, 1.21072e-08, -7.06023e-08, 0.00368384, -0.0259542, 0.0458745, 0.998603, 1, 1, 1, 0.933333, 1, 7.30506e-09, 1.21072e-08, -7.06023e-08, -0.00934185, -0.0305586, 0.0302509, 0.999031, 1, 1, 1, 1, 1, 7.30506e-09, 1.21072e-08, -7.06023e-08, -0.0332969, -0.0455723, 0.00635606, 0.998386, 1, 1, 1, 1.03333, 1, 7.30506e-09, 1.21072e-08, -7.06023e-08, -0.0439687, 0.00144247, 0.00107142, 0.999031, 1, 1, 1 )
tracks/37/type = "transform"
tracks/37/path = NodePath("Armature/Skeleton:RightForeArm")
tracks/37/interp = 1
tracks/37/loop_wrap = true
tracks/37/imported = true
tracks/37/enabled = true
tracks/37/keys = PoolRealArray( 0, 1, -1.13873e-08, -2.86382e-08, -6.8216e-08, 0.121893, 0.228975, -0.81177, 0.523203, 1, 1, 1, 0.0666667, 1, -1.13873e-08, -2.86382e-08, -6.8216e-08, 0.130351, 0.236433, -0.810217, 0.520246, 1, 1, 1, 0.133333, 1, -1.13873e-08, -2.86382e-08, -6.8216e-08, 0.145877, 0.249553, -0.80671, 0.515424, 1, 1, 1, 0.2, 1, -1.13873e-08, -2.86382e-08, -6.8216e-08, 0.116471, 0.23104, -0.808279, 0.528904, 1, 1, 1, 0.266667, 1, -1.13873e-08, -2.86382e-08, -6.8216e-08, 0.11441, 0.228985, -0.811018, 0.526048, 1, 1, 1, 0.333333, 1, -1.13873e-08, -2.86382e-08, -6.8216e-08, 0.114641, 0.228592, -0.812756, 0.523479, 1, 1, 1, 0.4, 1, -1.13873e-08, -2.86382e-08, -6.8216e-08, 0.110939, 0.229653, -0.804835, 0.535904, 1, 1, 1, 0.466667, 1, -1.13873e-08, -2.86382e-08, -6.8216e-08, 0.107833, 0.227149, -0.804892, 0.537517, 1, 1, 1, 0.533333, 1, -1.13873e-08, -2.86382e-08, -6.8216e-08, 0.106347, 0.22491, -0.807538, 0.534779, 1, 1, 1, 0.6, 1, -1.13873e-08, -2.86382e-08, -6.8216e-08, 0.0993008, 0.214267, -0.82007, 0.521263, 1, 1, 1, 0.666667, 1, -1.13873e-08, -2.86382e-08, -6.8216e-08, 0.0924609, 0.205791, -0.828586, 0.512393, 1, 1, 1, 0.733333, 1, -1.13873e-08, -2.86382e-08, -6.8216e-08, 0.0970403, 0.207742, -0.828816, 0.510383, 1, 1, 1, 0.8, 1, -1.13873e-08, -2.86382e-08, -6.8216e-08, 0.120602, 0.225161, -0.817005, 0.516972, 1, 1, 1, 0.866667, 1, -1.13873e-08, -2.86382e-08, -6.8216e-08, 0.132426, 0.233168, -0.814865, 0.513898, 1, 1, 1, 0.933333, 1, -1.13873e-08, -2.86382e-08, -6.8216e-08, 0.137404, 0.239189, -0.810158, 0.517255, 1, 1, 1, 1, 1, -1.13873e-08, -2.86382e-08, -6.8216e-08, 0.152203, 0.253699, -0.803672, 0.516317, 1, 1, 1, 1.03333, 1, -1.13873e-08, -2.86382e-08, -6.8216e-08, 0.121867, 0.22894, -0.811785, 0.523202, 1, 1, 1 )
tracks/38/type = "transform"
tracks/38/path = NodePath("Armature/Skeleton:RightArm")
tracks/38/interp = 1
tracks/38/loop_wrap = true
tracks/38/imported = true
tracks/38/enabled = true
tracks/38/keys = PoolRealArray( 0, 1, 5.53246e-09, 1.57161e-08, 9.13278e-08, 0.270635, -0.0144997, -0.424766, 0.863783, 1, 1, 1, 0.0666667, 1, 5.53246e-09, 1.57161e-08, 9.13278e-08, 0.264806, -0.0276108, -0.426203, 0.864562, 1, 1, 1, 0.133333, 1, 5.53246e-09, 1.57161e-08, 9.13278e-08, 0.256888, -0.0413102, -0.437317, 0.860846, 1, 1, 1, 0.2, 1, 5.53246e-09, 1.57161e-08, 9.13278e-08, 0.272996, -0.0415698, -0.443914, 0.852458, 1, 1, 1, 0.266667, 1, 5.53246e-09, 1.57161e-08, 9.13278e-08, 0.29974, -0.0349412, -0.449546, 0.840739, 1, 1, 1, 0.333333, 1, 5.53246e-09, 1.57161e-08, 9.13278e-08, 0.313337, -0.0256592, -0.447448, 0.837229, 1, 1, 1, 0.4, 1, 5.53246e-09, 1.57161e-08, 9.13278e-08, 0.30253, -0.0211316, -0.452755, 0.838476, 1, 1, 1, 0.466667, 1, 5.53246e-09, 1.57161e-08, 9.13278e-08, 0.290344, -0.0104211, -0.454767, 0.84189, 1, 1, 1, 0.533333, 1, 5.53246e-09, 1.57161e-08, 9.13278e-08, 0.266911, 0.00312066, -0.451791, 0.851254, 1, 1, 1, 0.6, 1, 5.53246e-09, 1.57161e-08, 9.13278e-08, 0.257266, 0.0146956, -0.440911, 0.859765, 1, 1, 1, 0.666667, 1, 5.53246e-09, 1.57161e-08, 9.13278e-08, 0.263636, 0.0194877, -0.434665, 0.86092, 1, 1, 1, 0.733333, 1, 5.53246e-09, 1.57161e-08, 9.13278e-08, 0.270605, 0.0335235, -0.4299, 0.860718, 1, 1, 1, 0.8, 1, 5.53246e-09, 1.57161e-08, 9.13278e-08, 0.266699, 0.0619723, -0.432969, 0.858818, 1, 1, 1, 0.866667, 1, 5.53246e-09, 1.57161e-08, 9.13278e-08, 0.27296, 0.064194, -0.434237, 0.856043, 1, 1, 1, 0.933333, 1, 5.53246e-09, 1.57161e-08, 9.13278e-08, 0.285236, 0.0331024, -0.435096, 0.853368, 1, 1, 1, 1, 1, 5.53246e-09, 1.57161e-08, 9.13278e-08, 0.275312, -0.00323895, -0.430481, 0.85958, 1, 1, 1, 1.03333, 1, 5.53246e-09, 1.57161e-08, 9.13278e-08, 0.270667, -0.0146354, -0.424781, 0.863763, 1, 1, 1 )
tracks/39/type = "transform"
tracks/39/path = NodePath("Armature/Skeleton:RightShoulder")
tracks/39/interp = 1
tracks/39/loop_wrap = true
tracks/39/imported = true
tracks/39/enabled = true
tracks/39/keys = PoolRealArray( 0, 1, -2.27374e-11, 2.91038e-10, 2.32831e-10, -0.00260524, 0.00946149, 0.057737, 0.998284, 1, 1, 1, 0.0666667, 1, -2.27374e-11, 2.91038e-10, 2.32831e-10, 0.00186653, 0.0220308, 0.0650786, 0.997635, 1, 1, 1, 0.133333, 1, -2.27374e-11, 2.91038e-10, 2.32831e-10, 0.00789275, 0.0405608, 0.0833391, 0.995664, 1, 1, 1, 0.2, 1, -2.27374e-11, 2.91038e-10, 2.32831e-10, 0.00804669, 0.0452941, 0.0953716, 0.994378, 1, 1, 1, 0.266667, 1, -2.27374e-11, 2.91038e-10, 2.32831e-10, 0.00737361, 0.0456805, 0.107439, 0.993134, 1, 1, 1, 0.333333, 1, -2.27374e-11, 2.91038e-10, 2.32831e-10, 0.0138458, 0.0373213, 0.108381, 0.993312, 1, 1, 1, 0.4, 1, -2.27374e-11, 2.91038e-10, 2.32831e-10, 0.0183771, 0.0205232, 0.100646, 0.994541, 1, 1, 1, 0.466667, 1, -2.27374e-11, 2.91038e-10, 2.32831e-10, 0.00717322, -0.000259289, 0.0843108, 0.996414, 1, 1, 1, 0.533333, 1, -2.27374e-11, 2.91038e-10, 2.32831e-10, 0.00529115, -0.0264228, 0.0641529, 0.997576, 1, 1, 1, 0.6, 1, -2.27374e-11, 2.91038e-10, 2.32831e-10, 0.0020919, -0.0505418, 0.0428604, 0.9978, 1, 1, 1, 0.666667, 1, -2.27374e-11, 2.91038e-10, 2.32831e-10, 0.000395588, -0.0671241, 0.0235292, 0.997467, 1, 1, 1, 0.733333, 1, -2.27374e-11, 2.91038e-10, 2.32831e-10, 0.00783655, -0.0803184, 0.00847067, 0.996702, 1, 1, 1, 0.8, 1, -2.27374e-11, 2.91038e-10, 2.32831e-10, 0.0124723, -0.0932229, 0.00124161, 0.995566, 1, 1, 1, 0.866667, 1, -2.27374e-11, 2.91038e-10, 2.32831e-10, 0.00167565, -0.090109, 0.00571279, 0.995914, 1, 1, 1, 0.933333, 1, -2.27374e-11, 2.91038e-10, 2.32831e-10, -0.00864908, -0.0485894, 0.0256521, 0.998452, 1, 1, 1, 1, 1, -2.27374e-11, 2.91038e-10, 2.32831e-10, -0.00229033, -0.00727872, 0.0484055, 0.998799, 1, 1, 1, 1.03333, 1, -2.27374e-11, 2.91038e-10, 2.32831e-10, -0.00260491, 0.00946089, 0.0577207, 0.998285, 1, 1, 1 )
tracks/40/type = "transform"
tracks/40/path = NodePath("Armature/Skeleton:Spine2")
tracks/40/interp = 1
tracks/40/loop_wrap = true
tracks/40/imported = true
tracks/40/enabled = true
tracks/40/keys = PoolRealArray( 0, 1, -1.77494e-27, -1.49012e-07, -1.89463e-09, 0.172298, 0.10854, 0.0644426, 0.976923, 1, 1, 1, 0.0666667, 1, -1.77494e-27, -1.49012e-07, -1.89463e-09, 0.172268, 0.108509, 0.0642649, 0.976944, 1, 1, 1, 0.133333, 1, -1.77494e-27, -1.49012e-07, -1.89463e-09, 0.173059, 0.10855, 0.0645721, 0.97678, 1, 1, 1, 0.2, 1, -1.77494e-27, -1.49012e-07, -1.89463e-09, 0.17394, 0.108755, 0.0649161, 0.976577, 1, 1, 1, 0.266667, 1, -1.77494e-27, -1.49012e-07, -1.89463e-09, 0.174402, 0.109599, 0.0643428, 0.976438, 1, 1, 1, 0.333333, 1, -1.77494e-27, -1.49012e-07, -1.89463e-09, 0.174384, 0.107657, 0.0646583, 0.976637, 1, 1, 1, 0.4, 1, -1.77494e-27, -1.49012e-07, -1.89463e-09, 0.174779, 0.110064, 0.059133, 0.976648, 1, 1, 1, 0.466667, 1, -1.77494e-27, -1.49012e-07, -1.89463e-09, 0.173593, 0.109053, 0.0577209, 0.977058, 1, 1, 1, 0.533333, 1, -1.77494e-27, -1.49012e-07, -1.89463e-09, 0.171266, 0.107822, 0.0598285, 0.977478, 1, 1, 1, 0.6, 1, -1.77494e-27, -1.49012e-07, -1.89463e-09, 0.169504, 0.108297, 0.0621418, 0.977588, 1, 1, 1, 0.666667, 1, -1.77494e-27, -1.49012e-07, -1.89463e-09, 0.166775, 0.109233, 0.0639257, 0.977838, 1, 1, 1, 0.733333, 1, -1.77494e-27, -1.49012e-07, -1.89463e-09, 0.16543, 0.110672, 0.0626436, 0.977988, 1, 1, 1, 0.8, 1, -1.77494e-27, -1.49012e-07, -1.89463e-09, 0.167943, 0.116972, 0.0521051, 0.977444, 1, 1, 1, 0.866667, 1, -1.77494e-27, -1.49012e-07, -1.89463e-09, 0.167715, 0.112857, 0.0551555, 0.9778, 1, 1, 1, 0.933333, 1, -1.77494e-27, -1.49012e-07, -1.89463e-09, 0.168394, 0.108445, 0.0601418, 0.977889, 1, 1, 1, 1, 1, -1.77494e-27, -1.49012e-07, -1.89463e-09, 0.171254, 0.108714, 0.0631086, 0.977175, 1, 1, 1, 1.03333, 1, -1.77494e-27, -1.49012e-07, -1.89463e-09, 0.172125, 0.108764, 0.0643768, 0.976933, 1, 1, 1 )
tracks/41/type = "transform"
tracks/41/path = NodePath("Armature/Skeleton:Spine1")
tracks/41/interp = 1
tracks/41/loop_wrap = true
tracks/41/imported = true
tracks/41/enabled = true
tracks/41/keys = PoolRealArray( 0, 1, 1.81899e-12, 1.04308e-07, 2.37311e-11, 0.192361, 0.0896459, 0.0408041, 0.976369, 1, 1, 1, 0.0666667, 1, 1.81899e-12, 1.04308e-07, 2.37311e-11, 0.192378, 0.0895684, 0.0406656, 0.976378, 1, 1, 1, 0.133333, 1, 1.81899e-12, 1.04308e-07, 2.37311e-11, 0.19325, 0.0893061, 0.0408722, 0.976221, 1, 1, 1, 0.2, 1, 1.81899e-12, 1.04308e-07, 2.37311e-11, 0.194176, 0.0894437, 0.0411304, 0.976014, 1, 1, 1, 0.266667, 1, 1.81899e-12, 1.04308e-07, 2.37311e-11, 0.194354, 0.0904733, 0.0412899, 0.975877, 1, 1, 1, 0.333333, 1, 1.81899e-12, 1.04308e-07, 2.37311e-11, 0.194515, 0.0885506, 0.0408992, 0.976038, 1, 1, 1, 0.4, 1, 1.81899e-12, 1.04308e-07, 2.37311e-11, 0.193615, 0.0926894, 0.0363998, 0.976011, 1, 1, 1, 0.466667, 1, 1.81899e-12, 1.04308e-07, 2.37311e-11, 0.192184, 0.0921543, 0.0349863, 0.976396, 1, 1, 1, 0.533333, 1, 1.81899e-12, 1.04308e-07, 2.37311e-11, 0.190504, 0.0901151, 0.0366219, 0.976855, 1, 1, 1, 0.6, 1, 1.81899e-12, 1.04308e-07, 2.37311e-11, 0.189407, 0.0895974, 0.0386784, 0.977037, 1, 1, 1, 0.666667, 1, 1.81899e-12, 1.04308e-07, 2.37311e-11, 0.187235, 0.0896021, 0.0406055, 0.977377, 1, 1, 1, 0.733333, 1, 1.81899e-12, 1.04308e-07, 2.37311e-11, 0.185681, 0.0912357, 0.0397735, 0.977557, 1, 1, 1, 0.8, 1, 1.81899e-12, 1.04308e-07, 2.37311e-11, 0.185207, 0.101007, 0.0323814, 0.976958, 1, 1, 1, 0.866667, 1, 1.81899e-12, 1.04308e-07, 2.37311e-11, 0.185851, 0.0961107, 0.0341237, 0.977271, 1, 1, 1, 0.933333, 1, 1.81899e-12, 1.04308e-07, 2.37311e-11, 0.187828, 0.0903465, 0.0372199, 0.977329, 1, 1, 1, 1, 1, 1.81899e-12, 1.04308e-07, 2.37311e-11, 0.191191, 0.0898496, 0.0397362, 0.976624, 1, 1, 1, 1.03333, 1, 1.81899e-12, 1.04308e-07, 2.37311e-11, 0.192281, 0.089554, 0.0408562, 0.976391, 1, 1, 1 )
tracks/42/type = "transform"
tracks/42/path = NodePath("Armature/Skeleton:Spine")
tracks/42/interp = 1
tracks/42/loop_wrap = true
tracks/42/imported = true
tracks/42/enabled = true
tracks/42/keys = PoolRealArray( 0, 1, 2.4869e-14, 8.14907e-10, 1.81899e-12, -0.000112804, 0.00236203, -0.0363233, 0.999337, 1, 1, 1, 0.0666667, 1, 2.4869e-14, 8.14907e-10, 1.81899e-12, -0.000770815, -0.00407444, -0.0349769, 0.99938, 1, 1, 1, 0.133333, 1, 2.4869e-14, 8.14907e-10, 1.81899e-12, -0.00263452, -0.0171282, -0.034858, 0.999242, 1, 1, 1, 0.266667, 1, 2.4869e-14, 8.14907e-10, 1.81899e-12, -0.00602549, -0.0400419, -0.0429011, 0.998258, 1, 1, 1, 0.333333, 1, 2.4869e-14, 8.14907e-10, 1.81899e-12, -0.00600763, -0.039056, -0.0422344, 0.998326, 1, 1, 1, 0.4, 1, 2.4869e-14, 8.14907e-10, 1.81899e-12, -0.00352857, -0.0241388, -0.0332714, 0.999149, 1, 1, 1, 0.466667, 1, 2.4869e-14, 8.14907e-10, 1.81899e-12, -0.000223623, -0.00795558, -0.0318396, 0.999461, 1, 1, 1, 0.533333, 1, 2.4869e-14, 8.14907e-10, 1.81899e-12, 0.00375114, 0.0104925, -0.0408711, 0.999102, 1, 1, 1, 0.6, 1, 2.4869e-14, 8.14907e-10, 1.81899e-12, 0.00814178, 0.0311546, -0.04933, 0.998263, 1, 1, 1, 0.666667, 1, 2.4869e-14, 8.14907e-10, 1.81899e-12, 0.0137463, 0.0515044, -0.0519349, 0.997227, 1, 1, 1, 0.733333, 1, 2.4869e-14, 8.14907e-10, 1.81899e-12, 0.0190347, 0.072185, -0.0451602, 0.996187, 1, 1, 1, 0.8, 1, 2.4869e-14, 8.14907e-10, 1.81899e-12, 0.0230983, 0.0856114, -0.0254413, 0.995736, 1, 1, 1, 0.866667, 1, 2.4869e-14, 8.14907e-10, 1.81899e-12, 0.0196081, 0.0713311, -0.0268039, 0.9969, 1, 1, 1, 0.933333, 1, 2.4869e-14, 8.14907e-10, 1.81899e-12, 0.0120081, 0.0444111, -0.0324006, 0.998416, 1, 1, 1, 1.03333, 1, 2.4869e-14, 8.14907e-10, 1.81899e-12, -9.06862e-05, 0.00233714, -0.0363597, 0.999336, 1, 1, 1 )
tracks/43/type = "transform"
tracks/43/path = NodePath("Armature/Skeleton:LeftToeBase")
tracks/43/interp = 1
tracks/43/loop_wrap = true
tracks/43/imported = true
tracks/43/enabled = true
tracks/43/keys = PoolRealArray( 0, 1, 2.62871e-10, 0, 0, 0.159149, 0.0175907, -0.00112018, 0.987097, 1, 1, 1, 0.0666667, 1, 2.62871e-10, 0, 0, 0.0551448, -0.0455804, 0.0057441, 0.997421, 1, 1, 1, 0.133333, 1, 2.62871e-10, 0, 0, -0.0781827, -0.116065, -0.00643274, 0.990139, 1, 1, 1, 0.2, 1, 2.62871e-10, 0, 0, -0.0816086, -0.120852, -0.00398467, 0.989302, 1, 1, 1, 0.266667, 1, 2.62871e-10, 0, 0, 0.097767, -0.208164, -0.0175132, 0.973038, 1, 1, 1, 0.333333, 1, 2.62871e-10, 0, 0, 0.147071, -0.131987, 0.010428, 0.980225, 1, 1, 1, 0.4, 1, 2.62871e-10, 0, 0, 0.00482705, -0.0722037, -0.00419401, 0.997369, 1, 1, 1, 0.466667, 1, 2.62871e-10, 0, 0, -0.0199671, -0.0219327, -0.00137387, 0.999559, 1, 1, 1, 0.8, 1, 2.62871e-10, 0, 0, -0.0199932, -0.0219455, -0.00137431, 0.999558, 1, 1, 1, 0.866667, 1, 2.62871e-10, 0, 0, 0.0592086, -0.00343135, 0.00335521, 0.998234, 1, 1, 1, 0.933333, 1, 2.62871e-10, 0, 0, -0.000651252, 0.00146322, -0.00563136, 0.999983, 1, 1, 1, 1, 1, 2.62871e-10, 0, 0, 0.140133, 0.0296908, 0.0718636, 0.987075, 1, 1, 1, 1.03333, 1, 2.62871e-10, 0, 0, 0.159172, 0.0175805, -0.00112213, 0.987094, 1, 1, 1 )
tracks/44/type = "transform"
tracks/44/path = NodePath("Armature/Skeleton:LeftFoot")
tracks/44/interp = 1
tracks/44/loop_wrap = true
tracks/44/imported = true
tracks/44/enabled = true
tracks/44/keys = PoolRealArray( 0, 1, 6.63567e-09, 4.23752e-08, -3.14321e-08, -0.0653238, -0.057207, -0.0686112, 0.993858, 1, 1, 1, 0.0666667, 1, 6.63567e-09, 4.23752e-08, -3.14321e-08, -0.0353828, -0.0375068, -0.044231, 0.99769, 1, 1, 1, 0.133333, 1, 6.63567e-09, 4.23752e-08, -3.14321e-08, -0.0273165, 0.0393934, 0.0321312, 0.998333, 1, 1, 1, 0.2, 1, 6.63567e-09, 4.23752e-08, -3.14321e-08, -0.035384, 0.0628501, 0.042778, 0.996478, 1, 1, 1, 0.266667, 1, 6.63567e-09, 4.23752e-08, -3.14321e-08, -0.0207158, 0.0554943, 0.0168074, 0.998103, 1, 1, 1, 0.333333, 1, 6.63567e-09, 4.23752e-08, -3.14321e-08, 0.149967, -0.154789, -0.148784, 0.965098, 1, 1, 1, 0.4, 1, 6.63567e-09, 4.23752e-08, -3.14321e-08, 0.258989, -0.214695, -0.153975, 0.929044, 1, 1, 1, 0.466667, 1, 6.63567e-09, 4.23752e-08, -3.14321e-08, 0.269249, -0.21029, -0.152782, 0.92733, 1, 1, 1, 0.533333, 1, 6.63567e-09, 4.23752e-08, -3.14321e-08, 0.252583, -0.185291, -0.104912, 0.943855, 1, 1, 1, 0.6, 1, 6.63567e-09, 4.23752e-08, -3.14321e-08, 0.228789, -0.164665, -0.0487077, 0.958211, 1, 1, 1, 0.666667, 1, 6.63567e-09, 4.23752e-08, -3.14321e-08, 0.196531, -0.139375, 0.003737, 0.970534, 1, 1, 1, 0.733333, 1, 6.63567e-09, 4.23752e-08, -3.14321e-08, 0.156021, -0.111623, 0.0586967, 0.97967, 1, 1, 1, 0.8, 1, 6.63567e-09, 4.23752e-08, -3.14321e-08, 0.110911, -0.0463616, 0.123812, 0.984997, 1, 1, 1, 0.866667, 1, 6.63567e-09, 4.23752e-08, -3.14321e-08, -0.0301054, 0.0911264, 0.0800759, 0.992158, 1, 1, 1, 0.933333, 1, 6.63567e-09, 4.23752e-08, -3.14321e-08, -0.133946, 0.000674435, -0.0747777, 0.988163, 1, 1, 1, 1, 1, 6.63567e-09, 4.23752e-08, -3.14321e-08, -0.0890391, -0.0498536, -0.0811693, 0.991463, 1, 1, 1, 1.03333, 1, 6.63567e-09, 4.23752e-08, -3.14321e-08, -0.0653289, -0.0572056, -0.0686112, 0.993857, 1, 1, 1 )
tracks/45/type = "transform"
tracks/45/path = NodePath("Armature/Skeleton:LeftLeg")
tracks/45/interp = 1
tracks/45/loop_wrap = true
tracks/45/imported = true
tracks/45/enabled = true
tracks/45/keys = PoolRealArray( 0, 1, -9.54606e-09, -5.9139e-08, -7.27596e-09, -0.586228, -0.0377468, 0.0563988, 0.807299, 1, 1, 1, 0.0666667, 1, -9.54606e-09, -5.9139e-08, -7.27596e-09, -0.613925, -0.0350533, 0.0528184, 0.786815, 1, 1, 1, 0.133333, 1, -9.54606e-09, -5.9139e-08, -7.27596e-09, -0.599049, -0.0327988, 0.0659251, 0.79732, 1, 1, 1, 0.2, 1, -9.54606e-09, -5.9139e-08, -7.27596e-09, -0.516646, -0.0186951, 0.092985, 0.850929, 1, 1, 1, 0.266667, 1, -9.54606e-09, -5.9139e-08, -7.27596e-09, -0.464452, 0.0433223, 0.0509181, 0.883072, 1, 1, 1, 0.333333, 1, -9.54606e-09, -5.9139e-08, -7.27596e-09, -0.474571, 0.0449779, 0.0380225, 0.878245, 1, 1, 1, 0.4, 1, -9.54606e-09, -5.9139e-08, -7.27596e-09, -0.490889, 0.0470894, 0.0931356, 0.864949, 1, 1, 1, 0.466667, 1, -9.54606e-09, -5.9139e-08, -7.27596e-09, -0.505366, 0.0103135, 0.0746948, 0.859604, 1, 1, 1, 0.533333, 1, -9.54606e-09, -5.9139e-08, -7.27596e-09, -0.504543, -0.0302498, 0.0946993, 0.857644, 1, 1, 1, 0.6, 1, -9.54606e-09, -5.9139e-08, -7.27596e-09, -0.503629, -0.0621503, 0.112624, 0.85429, 1, 1, 1, 0.733333, 1, -9.54606e-09, -5.9139e-08, -7.27596e-09, -0.495324, -0.132009, 0.147599, 0.845838, 1, 1, 1, 0.8, 1, -9.54606e-09, -5.9139e-08, -7.27596e-09, -0.452227, -0.143417, 0.139065, 0.869243, 1, 1, 1, 0.866667, 1, -9.54606e-09, -5.9139e-08, -7.27596e-09, -0.38541, -0.219031, 0.0452702, 0.895229, 1, 1, 1, 0.933333, 1, -9.54606e-09, -5.9139e-08, -7.27596e-09, -0.448041, -0.112307, 0.0342156, 0.886271, 1, 1, 1, 1, 1, -9.54606e-09, -5.9139e-08, -7.27596e-09, -0.552181, -0.063619, 0.0703195, 0.828314, 1, 1, 1, 1.03333, 1, -9.54606e-09, -5.9139e-08, -7.27596e-09, -0.586221, -0.0377476, 0.0563993, 0.807304, 1, 1, 1 )
tracks/46/type = "transform"
tracks/46/path = NodePath("Armature/Skeleton:LeftUpLeg")
tracks/46/interp = 1
tracks/46/loop_wrap = true
tracks/46/imported = true
tracks/46/enabled = true
tracks/46/keys = PoolRealArray( 0, 1, 1.16415e-10, 1.74623e-10, 2.18279e-11, 0.413083, -0.105339, -0.0401166, 0.903691, 1, 1, 1, 0.0666667, 1, 1.16415e-10, 1.74623e-10, 2.18279e-11, 0.370761, -0.0955226, 0.0122327, 0.923722, 1, 1, 1, 0.133333, 1, 1.16415e-10, 1.74623e-10, 2.18279e-11, 0.27873, -0.0723421, 0.110795, 0.95121, 1, 1, 1, 0.2, 1, 1.16415e-10, 1.74623e-10, 2.18279e-11, 0.193779, -0.0832489, 0.196489, 0.957555, 1, 1, 1, 0.266667, 1, 1.16415e-10, 1.74623e-10, 2.18279e-11, 0.147255, -0.0647959, 0.253333, 0.953908, 0.999999, 1, 1, 0.333333, 1, 1.16415e-10, 1.74623e-10, 2.18279e-11, 0.120971, -0.0645512, 0.249247, 0.958684, 0.999999, 1, 1, 0.4, 1, 1.16415e-10, 1.74623e-10, 2.18279e-11, 0.138717, -0.166309, 0.162348, 0.962675, 1, 1, 1, 0.466667, 1, 1.16415e-10, 1.74623e-10, 2.18279e-11, 0.166239, -0.164733, 0.108892, 0.966111, 1, 1, 1, 0.533333, 1, 1.16415e-10, 1.74623e-10, 2.18279e-11, 0.199246, -0.179465, 0.0381937, 0.962619, 0.999999, 1, 1, 0.6, 1, 1.16415e-10, 1.74623e-10, 2.18279e-11, 0.242633, -0.19054, -0.0265391, 0.950852, 1, 1, 1, 0.666667, 1, 1.16415e-10, 1.74623e-10, 2.18279e-11, 0.295968, -0.1957, -0.0774041, 0.931726, 1, 1, 1, 0.733333, 1, 1.16415e-10, 1.74623e-10, 2.18279e-11, 0.36151, -0.195366, -0.112991, 0.904641, 1, 1, 1, 0.8, 1, 1.16415e-10, 1.74623e-10, 2.18279e-11, 0.406401, -0.228086, -0.125951, 0.875758, 0.999999, 1, 1, 0.866667, 1, 1.16415e-10, 1.74623e-10, 2.18279e-11, 0.451715, -0.146551, -0.0968885, 0.874694, 1, 1, 1, 0.933333, 1, 1.16415e-10, 1.74623e-10, 2.18279e-11, 0.490477, -0.104122, -0.0819466, 0.861322, 1, 1, 1, 1, 1, 1.16415e-10, 1.74623e-10, 2.18279e-11, 0.451361, -0.110602, -0.0783623, 0.881986, 1, 1, 1, 1.03333, 1, 1.16415e-10, 1.74623e-10, 2.18279e-11, 0.41308, -0.105337, -0.0401168, 0.903692, 1, 1, 1 )
tracks/47/type = "transform"
tracks/47/path = NodePath("Armature/Skeleton:RightToeBase")
tracks/47/interp = 1
tracks/47/loop_wrap = true
tracks/47/imported = true
tracks/47/enabled = true
tracks/47/keys = PoolRealArray( 0, 1, -1.78867e-10, 1.16415e-10, 1.16415e-10, 0.000478101, -3.09552e-05, 0.00934928, 0.999956, 1, 1, 1, 0.266667, 1, -1.78867e-10, 1.16415e-10, 1.16415e-10, 0.000478161, -3.10103e-05, 0.00934985, 0.999956, 1, 1, 1, 0.333333, 1, -1.78867e-10, 1.16415e-10, 1.16415e-10, -0.00356824, 0.00421626, 0.00610441, 0.999966, 1, 1, 1, 0.4, 1, -1.78867e-10, 1.16415e-10, 1.16415e-10, -0.0115519, 0.0363413, 0.00600241, 0.999255, 1, 1, 1, 0.466667, 1, -1.78867e-10, 1.16415e-10, 1.16415e-10, -0.00609551, 0.0307869, 0.0040326, 0.999499, 1, 1, 1, 0.533333, 1, -1.78867e-10, 1.16415e-10, 1.16415e-10, -0.00927788, 0.0339814, 0.0052766, 0.999366, 1, 1, 1, 0.6, 1, -1.78867e-10, 1.16415e-10, 1.16415e-10, 0.0682336, 0.0444031, -0.00618902, 0.996662, 1, 1, 1, 0.666667, 1, -1.78867e-10, 1.16415e-10, 1.16415e-10, 0.129875, 0.0136842, 0.00567761, 0.99142, 1, 1, 1, 0.733333, 1, -1.78867e-10, 1.16415e-10, 1.16415e-10, 0.300006, -0.0148655, 0.024424, 0.953509, 1, 1, 1, 0.8, 1, -1.78867e-10, 1.16415e-10, 1.16415e-10, 0.336259, 0.035885, 0.019122, 0.940891, 1, 1, 1, 0.866667, 1, -1.78867e-10, 1.16415e-10, 1.16415e-10, 0.198954, 0.0628499, 0.03173, 0.977477, 1, 1, 1, 0.933333, 1, -1.78867e-10, 1.16415e-10, 1.16415e-10, 0.011148, 0.0151733, 0.0204693, 0.999613, 1, 1, 1, 1, 1, -1.78867e-10, 1.16415e-10, 1.16415e-10, 0.00050215, -4.91445e-05, 0.0102865, 0.999947, 1, 1, 1, 1.03333, 1, -1.78867e-10, 1.16415e-10, 1.16415e-10, 0.000488248, -3.73275e-05, 0.00932697, 0.999956, 1, 1, 1 )
tracks/48/type = "transform"
tracks/48/path = NodePath("Armature/Skeleton:RightFoot")
tracks/48/interp = 1
tracks/48/loop_wrap = true
tracks/48/imported = true
tracks/48/enabled = true
tracks/48/keys = PoolRealArray( 0, 1, 1.5425e-08, 2.09548e-09, 2.84053e-08, 0.321821, 0.0782417, 0.0440866, 0.942532, 1, 1, 1, 0.0666667, 1, 1.5425e-08, 2.09548e-09, 2.84053e-08, 0.281677, 0.0797009, 0.0521073, 0.954772, 1, 1, 1, 0.133333, 1, 1.5425e-08, 2.09548e-09, 2.84053e-08, 0.204909, 0.0886988, 0.0727661, 0.972034, 1, 1, 1, 0.2, 1, 1.5425e-08, 2.09548e-09, 2.84053e-08, 0.131931, 0.109913, 0.0862817, 0.981361, 1, 1, 1, 0.266667, 1, 1.5425e-08, 2.09548e-09, 2.84053e-08, 0.0408538, 0.123719, 0.10925, 0.985439, 1, 1, 1, 0.333333, 1, 1.5425e-08, 2.09548e-09, 2.84053e-08, -0.0165051, 0.0926331, 0.127368, 0.987382, 1, 1, 1, 0.4, 1, 1.5425e-08, 2.09548e-09, 2.84053e-08, 0.148765, 0.101625, 0.114524, 0.976947, 1, 1, 1, 0.466667, 1, 1.5425e-08, 2.09548e-09, 2.84053e-08, 0.12386, 0.0394043, 0.0729353, 0.988831, 1, 1, 1, 0.533333, 1, 1.5425e-08, 2.09548e-09, 2.84053e-08, 0.0986964, 0.0135109, -0.00344059, 0.99502, 1, 1, 1, 0.6, 1, 1.5425e-08, 2.09548e-09, 2.84053e-08, 0.0602651, 0.0362757, 0.0231009, 0.997256, 1, 1, 1, 0.666667, 1, 1.5425e-08, 2.09548e-09, 2.84053e-08, 0.0395553, 0.0522538, 0.0669924, 0.995599, 1, 1, 1, 0.733333, 1, 1.5425e-08, 2.09548e-09, 2.84053e-08, 0.0430214, 0.0381291, 0.0699278, 0.995894, 1, 1, 1, 0.8, 1, 1.5425e-08, 2.09548e-09, 2.84053e-08, 0.26458, -0.093226, -0.0776509, 0.956701, 1, 1, 1, 0.866667, 1, 1.5425e-08, 2.09548e-09, 2.84053e-08, 0.400262, 0.00462283, -0.0860245, 0.912343, 1, 1, 1, 0.933333, 1, 1.5425e-08, 2.09548e-09, 2.84053e-08, 0.465739, 0.0548365, -0.0167736, 0.883062, 1, 1, 1, 1, 1, 1.5425e-08, 2.09548e-09, 2.84053e-08, 0.381583, 0.0651296, 0.0348993, 0.921376, 1, 1, 1, 1.03333, 1, 1.5425e-08, 2.09548e-09, 2.84053e-08, 0.32182, 0.0782415, 0.0440855, 0.942532, 1, 1, 1 )
tracks/49/type = "transform"
tracks/49/path = NodePath("Armature/Skeleton:RightLeg")
tracks/49/interp = 1
tracks/49/loop_wrap = true
tracks/49/imported = true
tracks/49/enabled = true
tracks/49/keys = PoolRealArray( 0, 1, 1.92085e-09, -2.93367e-08, -6.98492e-09, -0.513966, 0.0578121, 0.0313853, 0.855284, 1, 1, 1, 0.0666667, 1, 1.92085e-09, -2.93367e-08, -6.98492e-09, -0.508925, 0.0607624, 0.0285432, 0.858189, 1, 1, 1, 0.133333, 1, 1.92085e-09, -2.93367e-08, -6.98492e-09, -0.512575, 0.0695896, 0.024425, 0.855469, 1, 1, 1, 0.2, 1, 1.92085e-09, -2.93367e-08, -6.98492e-09, -0.524856, 0.0674985, 0.0279962, 0.848049, 1, 1, 1, 0.266667, 1, 1.92085e-09, -2.93367e-08, -6.98492e-09, -0.520172, 0.0666518, 0.0282758, 0.850987, 1, 1, 1, 0.333333, 1, 1.92085e-09, -2.93367e-08, -6.98492e-09, -0.416228, 0.0299839, 0.0103861, 0.908706, 1, 1, 1, 0.4, 1, 1.92085e-09, -2.93367e-08, -6.98492e-09, -0.392516, 0.062489, -0.0409179, 0.916707, 1, 1, 1, 0.466667, 1, 1.92085e-09, -2.93367e-08, -6.98492e-09, -0.476893, 0.059858, -0.0792729, 0.873331, 1, 1, 1, 0.533333, 1, 1.92085e-09, -2.93367e-08, -6.98492e-09, -0.591463, 0.0527822, -0.0425991, 0.803474, 1, 1, 1, 0.6, 1, 1.92085e-09, -2.93367e-08, -6.98492e-09, -0.651062, -0.0626073, 0.0756173, 0.752649, 1, 1, 1, 0.666667, 1, 1.92085e-09, -2.93367e-08, -6.98492e-09, -0.643652, -0.103643, 0.137853, 0.745631, 1, 1, 1, 0.733333, 1, 1.92085e-09, -2.93367e-08, -6.98492e-09, -0.609338, -0.13741, 0.12692, 0.77053, 1, 1, 1, 0.8, 1, 1.92085e-09, -2.93367e-08, -6.98492e-09, -0.5441, -0.102874, 0.0304721, 0.832132, 1, 1, 1, 0.866667, 1, 1.92085e-09, -2.93367e-08, -6.98492e-09, -0.517999, -0.042515, 0.0377059, 0.853492, 1, 1, 1, 0.933333, 1, 1.92085e-09, -2.93367e-08, -6.98492e-09, -0.50187, 0.018806, 0.0483923, 0.863383, 1, 1, 1, 1, 1, 1.92085e-09, -2.93367e-08, -6.98492e-09, -0.519747, 0.0493435, 0.0374498, 0.852072, 1, 1, 1, 1.03333, 1, 1.92085e-09, -2.93367e-08, -6.98492e-09, -0.513966, 0.0578112, 0.0313848, 0.855285, 1, 1, 1 )
tracks/50/type = "transform"
tracks/50/path = NodePath("Armature/Skeleton:RightUpLeg")
tracks/50/interp = 1
tracks/50/loop_wrap = true
tracks/50/imported = true
tracks/50/enabled = true
tracks/50/keys = PoolRealArray( 0, 1, -1.16415e-10, 7.567e-10, -4.36557e-11, 0.21387, 0.142916, -0.0643108, 0.964209, 1, 1, 1, 0.0666667, 1, -1.16415e-10, 7.567e-10, -4.36557e-11, 0.243385, 0.142124, -0.0825799, 0.9559, 1, 1, 1, 0.133333, 1, -1.16415e-10, 7.567e-10, -4.36557e-11, 0.307142, 0.132065, -0.130567, 0.933368, 1, 0.999999, 1, 0.2, 1, -1.16415e-10, 7.567e-10, -4.36557e-11, 0.366773, 0.112829, -0.189604, 0.903769, 1, 0.999999, 1, 0.266667, 1, -1.16415e-10, 7.567e-10, -4.36557e-11, 0.413604, 0.0944943, -0.255643, 0.868705, 1, 0.999999, 1, 0.333333, 1, -1.16415e-10, 7.567e-10, -4.36557e-11, 0.423158, 0.129914, -0.288621, 0.848974, 1, 0.999998, 1, 0.4, 1, -1.16415e-10, 7.567e-10, -4.36557e-11, 0.434094, 0.130935, -0.26146, 0.85209, 1, 0.999999, 1, 0.466667, 1, -1.16415e-10, 7.567e-10, -4.36557e-11, 0.438417, 0.155168, -0.207031, 0.860727, 1, 0.999999, 1, 0.533333, 1, -1.16415e-10, 7.567e-10, -4.36557e-11, 0.384382, 0.155095, -0.162771, 0.895378, 1, 0.999999, 1, 0.6, 1, -1.16415e-10, 7.567e-10, -4.36557e-11, 0.289554, 0.158735, -0.10839, 0.937664, 1, 1, 1, 0.666667, 1, -1.16415e-10, 7.567e-10, -4.36557e-11, 0.194424, 0.155765, -0.0695492, 0.965971, 1, 1, 1, 0.733333, 1, -1.16415e-10, 7.567e-10, -4.36557e-11, 0.0885755, 0.139641, -0.0056505, 0.986216, 1, 1, 1, 0.8, 1, -1.16415e-10, 7.567e-10, -4.36557e-11, -0.0410128, 0.137974, 0.0633502, 0.987557, 1, 1, 1, 0.866667, 1, -1.16415e-10, 7.567e-10, -4.36557e-11, -0.0329809, 0.122358, 0.0637963, 0.989884, 1, 1, 1, 0.933333, 1, -1.16415e-10, 7.567e-10, -4.36557e-11, 0.0409191, 0.116748, 0.0286873, 0.991903, 1, 1, 1, 1, 1, -1.16415e-10, 7.567e-10, -4.36557e-11, 0.163433, 0.144248, -0.034116, 0.975355, 1, 1, 1, 1.03333, 1, -1.16415e-10, 7.567e-10, -4.36557e-11, 0.213871, 0.142919, -0.0643107, 0.964208, 1, 1, 1 )
tracks/51/type = "transform"
tracks/51/path = NodePath("Armature/Skeleton:Hips")
tracks/51/interp = 1
tracks/51/loop_wrap = true
tracks/51/imported = true
tracks/51/enabled = true
tracks/51/keys = PoolRealArray( 0, 1, 1.31117e-05, -0.00125956, 0.000174999, 0.00411326, -0.408985, 0.0345333, 0.911878, 1, 1, 1, 0.0666667, 1, -9.5285e-05, -0.00120432, 0.00016751, 0.00684206, -0.398182, 0.0333947, 0.916673, 1, 1, 1, 0.133333, 1, -0.000265308, -0.00128344, 0.000178026, 0.011622, -0.376224, 0.0338318, 0.925838, 1, 1, 1, 0.2, 1, -0.000480248, -0.00156795, 0.000210807, 0.0144704, -0.354558, 0.0380506, 0.934148, 1, 1, 1, 0.266667, 1, -0.000618031, -0.00198158, 0.000270712, 0.016665, -0.333885, 0.0391742, 0.941652, 1, 1, 1, 0.333333, 1, -0.000417754, -0.00201098, 0.000343625, 0.0159777, -0.329556, 0.0351158, 0.943347, 1, 1, 1, 0.4, 1, -0.000157176, -0.00172844, 0.000420306, 0.0140346, -0.365377, 0.0263502, 0.930381, 1, 1, 1, 0.466667, 1, -0.000121473, -0.00152255, 0.00049286, 0.0101316, -0.398397, 0.0186614, 0.916967, 1, 1, 1, 0.533333, 1, -0.000228043, -0.00129661, 0.000534455, 0.00261862, -0.42991, 0.0161306, 0.902724, 1, 1, 1, 0.6, 1, -0.000304709, -0.00125152, 0.00054897, -0.00541339, -0.461933, 0.0132027, 0.8868, 1, 1, 1, 0.666667, 1, -0.000377376, -0.00136876, 0.000540661, -0.0115384, -0.495146, 0.00706794, 0.868705, 1, 1, 1, 0.733333, 1, -0.000456307, -0.00166813, 0.000501067, -0.0152925, -0.530287, -0.000774282, 0.84768, 1, 1, 1, 0.8, 1, -0.000529991, -0.00191925, 0.000441488, -0.0162368, -0.569117, -0.00786844, 0.822059, 1, 1, 1, 0.866667, 1, -0.000544225, -0.00198617, 0.000351344, -0.013004, -0.54818, -0.00177236, 0.836258, 1, 1, 1, 0.933333, 1, -0.000376449, -0.00178193, 0.000263089, -0.00680123, -0.497193, 0.0131459, 0.867514, 1, 1, 1, 1.03333, 1, 1.31122e-05, -0.00125955, 0.000174903, 0.00411313, -0.408985, 0.0345336, 0.911878, 1, 1, 1 )
