[gd_scene load_steps=4 format=2]

[ext_resource path="res://Graphics/Meshes/Props/Barrel07.mesh" type="ArrayMesh" id=1]
[ext_resource path="res://Graphics/Materials/Main/MainPropsMat2.tres" type="Material" id=2]

[sub_resource type="CylinderShape" id=1]
radius = 0.376043
height = 1.2811

[node name="Barrel07" type="MeshInstance"]
mesh = ExtResource( 1 )
material/0 = ExtResource( 2 )

[node name="StaticBody" type="StaticBody" parent="."]

[node name="CollisionShape" type="CollisionShape" parent="StaticBody"]
transform = Transform( 1, 0, 0, 0, 1, 0, 0, 0, 1, -0.00540948, 0.634696, 0.00426823 )
shape = SubResource( 1 )
