[gd_scene load_steps=4 format=2]

[ext_resource path="res://Graphics/Meshes/Props/Box03.mesh" type="ArrayMesh" id=1]
[ext_resource path="res://Graphics/Materials/Main/MainPropsMat2.tres" type="Material" id=2]

[sub_resource type="BoxShape" id=1]
extents = Vector3( 1.0109, 0.398569, 0.51873 )

[node name="Box03" type="MeshInstance"]
mesh = ExtResource( 1 )
material/0 = ExtResource( 2 )

[node name="StaticBody" type="StaticBody" parent="."]

[node name="CollisionShape" type="CollisionShape" parent="StaticBody"]
transform = Transform( 1, 0, 0, 0, 1, 0, 0, 0, 1, -0.00540948, 0.391201, 0.00426823 )
shape = SubResource( 1 )
