[gd_scene load_steps=3 format=2]

[ext_resource path="res://Graphics/Materials/Dev/BuildingMat.tres" type="Material" id=1]
[ext_resource path="res://Graphics/Meshes/Buildings/Building09.mesh" type="ArrayMesh" id=2]


[node name="Building09" type="MeshInstance"]
mesh = ExtResource( 2 )
skeleton = NodePath("")
material/0 = ExtResource( 1 )
