[gd_scene load_steps=2 format=2]

[ext_resource path="res://Animations/3D Animations/Snake/Model/SnakeAnimations.glb" type="PackedScene" id=1]

[node name="SnakeAnimations" instance=ExtResource( 1 )]
