[gd_resource type="ShaderMaterial" load_steps=7 format=2]

[ext_resource path="res://Graphics/Shaders/MainShaderNoCull.tres" type="Shader" id=1]
[ext_resource path="res://Graphics/Textures/Props/PropsB_D.png" type="Texture" id=2]
[ext_resource path="res://Graphics/Textures/Props/PropsB_M.png" type="Texture" id=3]
[ext_resource path="res://Graphics/Textures/Props/PropsB_R.png" type="Texture" id=4]
[ext_resource path="res://Graphics/Textures/Props/PropsB_AO.png" type="Texture" id=5]
[ext_resource path="res://Graphics/Textures/Props/PropsB_N.png" type="Texture" id=6]

[resource]
shader = ExtResource( 1 )
shader_param/PixelateResolution = 512.0
shader_param/MetallicFactor = 1.0
shader_param/RoughnessFactor = 1.0
shader_param/AOFactor = 1.0
shader_param/NormalDepth = 1.0
shader_param/Albedo = ExtResource( 2 )
shader_param/Metalic = ExtResource( 3 )
shader_param/Roughness = ExtResource( 4 )
shader_param/AmbiantOcclusion = ExtResource( 5 )
shader_param/NormalMap = ExtResource( 6 )
