[gd_resource type="ShaderMaterial" load_steps=3 format=2]

[ext_resource path="res://Graphics/Shaders/MainLightRaysShader.tres" type="Shader" id=1]
[ext_resource path="res://Graphics/Textures/LightRays/LightRays_AlphaMap.png" type="Texture" id=2]

[resource]
shader = ExtResource( 1 )
shader_param/Color = Color( 1, 0.905882, 0.709804, 1 )
shader_param/Intensity = 0.05
shader_param/DisplacementSpeed = 0.03
shader_param/DisplacementAmplitude = 0.005
shader_param/Resolution = 256.0
shader_param/ResVarSpeed = 0.005
shader_param/ResVariation = 128.0
shader_param/AlphaMap = ExtResource( 2 )
