[gd_resource type="ShaderMaterial" load_steps=4 format=2]

[ext_resource path="res://Graphics/Shaders/MainShaderNoCull.tres" type="Shader" id=1]
[ext_resource path="res://Graphics/Textures/Buildings/Building_D.png" type="Texture" id=2]
[ext_resource path="res://Graphics/Textures/Buildings/Building_S.png" type="Texture" id=3]

[resource]
shader = ExtResource( 1 )
shader_param/PixelateResolution = 4096.0
shader_param/MetallicFactor = 0.0
shader_param/RoughnessFactor = 1.0
shader_param/AOFactor = 1.0
shader_param/NormalDepth = 1.0
shader_param/Albedo = ExtResource( 2 )
shader_param/Roughness = ExtResource( 3 )
